//Maya ASCII 2011 scene
//Name: charBase_idleEncounter.ma
//Last modified: Thu, Sep 19, 2013 01:52:01 PM
//Codeset: 1252
file -rdi 1 -ns "CHAR" -rfn "CHARRN" "E:/Dropbox/UNITY/android01/Assets/Maya//scenes/charBase.ma";
file -r -ns "CHAR" -dr 1 -rfn "CHARRN" "E:/Dropbox/UNITY/android01/Assets/Maya//scenes/charBase.ma";
requires maya "2011";
currentUnit -l centimeter -a degree -t film;
fileInfo "application" "maya";
fileInfo "product" "Maya 2011";
fileInfo "version" "2011";
fileInfo "cutIdentifier" "201009060019-781618";
fileInfo "osv" "Microsoft Windows 7 Business Edition, 64-bit Windows 7 Service Pack 1 (Build 7601)\n";
createNode transform -s -n "persp";
	setAttr ".v" no;
	setAttr ".t" -type "double3" -0.83347184132194285 0.78156271261308063 1.5225798250910672 ;
	setAttr ".r" -type "double3" -17.138352729602978 -33.400000000000311 -1.9048708282194029e-015 ;
createNode camera -s -n "perspShape" -p "persp";
	setAttr -k off ".v" no;
	setAttr ".fl" 34.999999999999986;
	setAttr ".coi" 1.7954979964691868;
	setAttr ".imn" -type "string" "persp";
	setAttr ".den" -type "string" "persp_depth";
	setAttr ".man" -type "string" "persp_mask";
	setAttr ".tp" -type "double3" -2.9802322387695313e-008 0.27126479148864746 0.017210379242897034 ;
	setAttr ".hc" -type "string" "viewSet -p %camera";
createNode transform -s -n "top";
	setAttr ".v" no;
	setAttr ".t" -type "double3" 0 100.1 0 ;
	setAttr ".r" -type "double3" -89.999999999999986 0 0 ;
createNode camera -s -n "topShape" -p "top";
	setAttr -k off ".v" no;
	setAttr ".rnd" no;
	setAttr ".coi" 100.1;
	setAttr ".ow" 30;
	setAttr ".imn" -type "string" "top";
	setAttr ".den" -type "string" "top_depth";
	setAttr ".man" -type "string" "top_mask";
	setAttr ".hc" -type "string" "viewSet -t %camera";
	setAttr ".o" yes;
createNode transform -s -n "front";
	setAttr ".v" no;
	setAttr ".t" -type "double3" 0 0 100.1 ;
createNode camera -s -n "frontShape" -p "front";
	setAttr -k off ".v" no;
	setAttr ".rnd" no;
	setAttr ".coi" 100.1;
	setAttr ".ow" 30;
	setAttr ".imn" -type "string" "front";
	setAttr ".den" -type "string" "front_depth";
	setAttr ".man" -type "string" "front_mask";
	setAttr ".hc" -type "string" "viewSet -f %camera";
	setAttr ".o" yes;
createNode transform -s -n "side";
	setAttr ".v" no;
	setAttr ".t" -type "double3" 100.1 0 0 ;
	setAttr ".r" -type "double3" 0 89.999999999999986 0 ;
createNode camera -s -n "sideShape" -p "side";
	setAttr -k off ".v" no;
	setAttr ".rnd" no;
	setAttr ".coi" 100.1;
	setAttr ".ow" 30;
	setAttr ".imn" -type "string" "side";
	setAttr ".den" -type "string" "side_depth";
	setAttr ".man" -type "string" "side_mask";
	setAttr ".hc" -type "string" "viewSet -s %camera";
	setAttr ".o" yes;
createNode lightLinker -s -n "lightLinker1";
	setAttr -s 2 ".lnk";
	setAttr -s 2 ".slnk";
createNode displayLayerManager -n "layerManager";
createNode displayLayer -n "defaultLayer";
createNode renderLayerManager -n "renderLayerManager";
createNode renderLayer -n "defaultRenderLayer";
	setAttr ".g" yes;
createNode reference -n "CHARRN";
	setAttr -s 66 ".phl";
	setAttr ".phl[1]" 0;
	setAttr ".phl[2]" 0;
	setAttr ".phl[3]" 0;
	setAttr ".phl[4]" 0;
	setAttr ".phl[5]" 0;
	setAttr ".phl[6]" 0;
	setAttr ".phl[7]" 0;
	setAttr ".phl[8]" 0;
	setAttr ".phl[9]" 0;
	setAttr ".phl[10]" 0;
	setAttr ".phl[11]" 0;
	setAttr ".phl[12]" 0;
	setAttr ".phl[13]" 0;
	setAttr ".phl[14]" 0;
	setAttr ".phl[15]" 0;
	setAttr ".phl[16]" 0;
	setAttr ".phl[17]" 0;
	setAttr ".phl[18]" 0;
	setAttr ".phl[19]" 0;
	setAttr ".phl[20]" 0;
	setAttr ".phl[21]" 0;
	setAttr ".phl[22]" 0;
	setAttr ".phl[23]" 0;
	setAttr ".phl[24]" 0;
	setAttr ".phl[25]" 0;
	setAttr ".phl[26]" 0;
	setAttr ".phl[27]" 0;
	setAttr ".phl[28]" 0;
	setAttr ".phl[29]" 0;
	setAttr ".phl[30]" 0;
	setAttr ".phl[31]" 0;
	setAttr ".phl[32]" 0;
	setAttr ".phl[33]" 0;
	setAttr ".phl[34]" 0;
	setAttr ".phl[35]" 0;
	setAttr ".phl[36]" 0;
	setAttr ".phl[37]" 0;
	setAttr ".phl[38]" 0;
	setAttr ".phl[39]" 0;
	setAttr ".phl[40]" 0;
	setAttr ".phl[41]" 0;
	setAttr ".phl[42]" 0;
	setAttr ".phl[43]" 0;
	setAttr ".phl[44]" 0;
	setAttr ".phl[45]" 0;
	setAttr ".phl[46]" 0;
	setAttr ".phl[47]" 0;
	setAttr ".phl[48]" 0;
	setAttr ".phl[49]" 0;
	setAttr ".phl[50]" 0;
	setAttr ".phl[51]" 0;
	setAttr ".phl[52]" 0;
	setAttr ".phl[53]" 0;
	setAttr ".phl[54]" 0;
	setAttr ".phl[55]" 0;
	setAttr ".phl[56]" 0;
	setAttr ".phl[57]" 0;
	setAttr ".phl[58]" 0;
	setAttr ".phl[59]" 0;
	setAttr ".phl[60]" 0;
	setAttr ".phl[61]" 0;
	setAttr ".phl[62]" 0;
	setAttr ".phl[63]" 0;
	setAttr ".phl[64]" 0;
	setAttr ".phl[65]" 0;
	setAttr ".phl[66]" 0;
	setAttr ".ed" -type "dataReferenceEdits" 
		"CHARRN"
		"CHARRN" 0
		"CHARRN" 66
		5 4 "CHARRN" "|CHAR:Hips.translateX" "CHARRN.placeHolderList[1]" ""
		5 4 "CHARRN" "|CHAR:Hips.translateY" "CHARRN.placeHolderList[2]" ""
		5 4 "CHARRN" "|CHAR:Hips.translateZ" "CHARRN.placeHolderList[3]" ""
		5 4 "CHARRN" "|CHAR:Hips.rotateX" "CHARRN.placeHolderList[4]" ""
		5 4 "CHARRN" "|CHAR:Hips.rotateY" "CHARRN.placeHolderList[5]" ""
		5 4 "CHARRN" "|CHAR:Hips.rotateZ" "CHARRN.placeHolderList[6]" ""
		5 4 "CHARRN" "|CHAR:Hips|CHAR:L_UpLeg.translateX" "CHARRN.placeHolderList[7]" 
		""
		5 4 "CHARRN" "|CHAR:Hips|CHAR:L_UpLeg.translateY" "CHARRN.placeHolderList[8]" 
		""
		5 4 "CHARRN" "|CHAR:Hips|CHAR:L_UpLeg.translateZ" "CHARRN.placeHolderList[9]" 
		""
		5 4 "CHARRN" "|CHAR:Hips|CHAR:L_UpLeg.rotateX" "CHARRN.placeHolderList[10]" 
		""
		5 4 "CHARRN" "|CHAR:Hips|CHAR:L_UpLeg.rotateY" "CHARRN.placeHolderList[11]" 
		""
		5 4 "CHARRN" "|CHAR:Hips|CHAR:L_UpLeg.rotateZ" "CHARRN.placeHolderList[12]" 
		""
		5 4 "CHARRN" "|CHAR:Hips|CHAR:L_UpLeg|CHAR:L_Foot.translateX" "CHARRN.placeHolderList[13]" 
		""
		5 4 "CHARRN" "|CHAR:Hips|CHAR:L_UpLeg|CHAR:L_Foot.translateY" "CHARRN.placeHolderList[14]" 
		""
		5 4 "CHARRN" "|CHAR:Hips|CHAR:L_UpLeg|CHAR:L_Foot.translateZ" "CHARRN.placeHolderList[15]" 
		""
		5 4 "CHARRN" "|CHAR:Hips|CHAR:L_UpLeg|CHAR:L_Foot.rotateX" "CHARRN.placeHolderList[16]" 
		""
		5 4 "CHARRN" "|CHAR:Hips|CHAR:L_UpLeg|CHAR:L_Foot.rotateY" "CHARRN.placeHolderList[17]" 
		""
		5 4 "CHARRN" "|CHAR:Hips|CHAR:L_UpLeg|CHAR:L_Foot.rotateZ" "CHARRN.placeHolderList[18]" 
		""
		5 4 "CHARRN" "|CHAR:Hips|CHAR:R_UpLeg.translateX" "CHARRN.placeHolderList[19]" 
		""
		5 4 "CHARRN" "|CHAR:Hips|CHAR:R_UpLeg.translateY" "CHARRN.placeHolderList[20]" 
		""
		5 4 "CHARRN" "|CHAR:Hips|CHAR:R_UpLeg.translateZ" "CHARRN.placeHolderList[21]" 
		""
		5 4 "CHARRN" "|CHAR:Hips|CHAR:R_UpLeg.rotateX" "CHARRN.placeHolderList[22]" 
		""
		5 4 "CHARRN" "|CHAR:Hips|CHAR:R_UpLeg.rotateY" "CHARRN.placeHolderList[23]" 
		""
		5 4 "CHARRN" "|CHAR:Hips|CHAR:R_UpLeg.rotateZ" "CHARRN.placeHolderList[24]" 
		""
		5 4 "CHARRN" "|CHAR:Hips|CHAR:R_UpLeg|CHAR:R_Foot.translateX" "CHARRN.placeHolderList[25]" 
		""
		5 4 "CHARRN" "|CHAR:Hips|CHAR:R_UpLeg|CHAR:R_Foot.translateY" "CHARRN.placeHolderList[26]" 
		""
		5 4 "CHARRN" "|CHAR:Hips|CHAR:R_UpLeg|CHAR:R_Foot.translateZ" "CHARRN.placeHolderList[27]" 
		""
		5 4 "CHARRN" "|CHAR:Hips|CHAR:R_UpLeg|CHAR:R_Foot.rotateX" "CHARRN.placeHolderList[28]" 
		""
		5 4 "CHARRN" "|CHAR:Hips|CHAR:R_UpLeg|CHAR:R_Foot.rotateY" "CHARRN.placeHolderList[29]" 
		""
		5 4 "CHARRN" "|CHAR:Hips|CHAR:R_UpLeg|CHAR:R_Foot.rotateZ" "CHARRN.placeHolderList[30]" 
		""
		5 4 "CHARRN" "|CHAR:Hips|CHAR:Chest.translateX" "CHARRN.placeHolderList[31]" 
		""
		5 4 "CHARRN" "|CHAR:Hips|CHAR:Chest.translateY" "CHARRN.placeHolderList[32]" 
		""
		5 4 "CHARRN" "|CHAR:Hips|CHAR:Chest.translateZ" "CHARRN.placeHolderList[33]" 
		""
		5 4 "CHARRN" "|CHAR:Hips|CHAR:Chest.rotateX" "CHARRN.placeHolderList[34]" 
		""
		5 4 "CHARRN" "|CHAR:Hips|CHAR:Chest.rotateY" "CHARRN.placeHolderList[35]" 
		""
		5 4 "CHARRN" "|CHAR:Hips|CHAR:Chest.rotateZ" "CHARRN.placeHolderList[36]" 
		""
		5 4 "CHARRN" "|CHAR:Hips|CHAR:Chest|CHAR:Head.translateX" "CHARRN.placeHolderList[37]" 
		""
		5 4 "CHARRN" "|CHAR:Hips|CHAR:Chest|CHAR:Head.translateY" "CHARRN.placeHolderList[38]" 
		""
		5 4 "CHARRN" "|CHAR:Hips|CHAR:Chest|CHAR:Head.translateZ" "CHARRN.placeHolderList[39]" 
		""
		5 4 "CHARRN" "|CHAR:Hips|CHAR:Chest|CHAR:Head.rotateX" "CHARRN.placeHolderList[40]" 
		""
		5 4 "CHARRN" "|CHAR:Hips|CHAR:Chest|CHAR:Head.rotateY" "CHARRN.placeHolderList[41]" 
		""
		5 4 "CHARRN" "|CHAR:Hips|CHAR:Chest|CHAR:Head.rotateZ" "CHARRN.placeHolderList[42]" 
		""
		5 4 "CHARRN" "|CHAR:Hips|CHAR:Chest|CHAR:L_Arm.rotateX" "CHARRN.placeHolderList[43]" 
		""
		5 4 "CHARRN" "|CHAR:Hips|CHAR:Chest|CHAR:L_Arm.rotateY" "CHARRN.placeHolderList[44]" 
		""
		5 4 "CHARRN" "|CHAR:Hips|CHAR:Chest|CHAR:L_Arm.rotateZ" "CHARRN.placeHolderList[45]" 
		""
		5 4 "CHARRN" "|CHAR:Hips|CHAR:Chest|CHAR:L_Arm.translateX" "CHARRN.placeHolderList[46]" 
		""
		5 4 "CHARRN" "|CHAR:Hips|CHAR:Chest|CHAR:L_Arm.translateY" "CHARRN.placeHolderList[47]" 
		""
		5 4 "CHARRN" "|CHAR:Hips|CHAR:Chest|CHAR:L_Arm.translateZ" "CHARRN.placeHolderList[48]" 
		""
		5 4 "CHARRN" "|CHAR:Hips|CHAR:Chest|CHAR:L_Arm|CHAR:L_Hand.translateX" 
		"CHARRN.placeHolderList[49]" ""
		5 4 "CHARRN" "|CHAR:Hips|CHAR:Chest|CHAR:L_Arm|CHAR:L_Hand.translateY" 
		"CHARRN.placeHolderList[50]" ""
		5 4 "CHARRN" "|CHAR:Hips|CHAR:Chest|CHAR:L_Arm|CHAR:L_Hand.translateZ" 
		"CHARRN.placeHolderList[51]" ""
		5 4 "CHARRN" "|CHAR:Hips|CHAR:Chest|CHAR:L_Arm|CHAR:L_Hand.rotateX" 
		"CHARRN.placeHolderList[52]" ""
		5 4 "CHARRN" "|CHAR:Hips|CHAR:Chest|CHAR:L_Arm|CHAR:L_Hand.rotateY" 
		"CHARRN.placeHolderList[53]" ""
		5 4 "CHARRN" "|CHAR:Hips|CHAR:Chest|CHAR:L_Arm|CHAR:L_Hand.rotateZ" 
		"CHARRN.placeHolderList[54]" ""
		5 4 "CHARRN" "|CHAR:Hips|CHAR:Chest|CHAR:R_Arm.rotateX" "CHARRN.placeHolderList[55]" 
		""
		5 4 "CHARRN" "|CHAR:Hips|CHAR:Chest|CHAR:R_Arm.rotateY" "CHARRN.placeHolderList[56]" 
		""
		5 4 "CHARRN" "|CHAR:Hips|CHAR:Chest|CHAR:R_Arm.rotateZ" "CHARRN.placeHolderList[57]" 
		""
		5 4 "CHARRN" "|CHAR:Hips|CHAR:Chest|CHAR:R_Arm.translateX" "CHARRN.placeHolderList[58]" 
		""
		5 4 "CHARRN" "|CHAR:Hips|CHAR:Chest|CHAR:R_Arm.translateY" "CHARRN.placeHolderList[59]" 
		""
		5 4 "CHARRN" "|CHAR:Hips|CHAR:Chest|CHAR:R_Arm.translateZ" "CHARRN.placeHolderList[60]" 
		""
		5 4 "CHARRN" "|CHAR:Hips|CHAR:Chest|CHAR:R_Arm|CHAR:R_Hand.translateX" 
		"CHARRN.placeHolderList[61]" ""
		5 4 "CHARRN" "|CHAR:Hips|CHAR:Chest|CHAR:R_Arm|CHAR:R_Hand.translateY" 
		"CHARRN.placeHolderList[62]" ""
		5 4 "CHARRN" "|CHAR:Hips|CHAR:Chest|CHAR:R_Arm|CHAR:R_Hand.translateZ" 
		"CHARRN.placeHolderList[63]" ""
		5 4 "CHARRN" "|CHAR:Hips|CHAR:Chest|CHAR:R_Arm|CHAR:R_Hand.rotateX" 
		"CHARRN.placeHolderList[64]" ""
		5 4 "CHARRN" "|CHAR:Hips|CHAR:Chest|CHAR:R_Arm|CHAR:R_Hand.rotateY" 
		"CHARRN.placeHolderList[65]" ""
		5 4 "CHARRN" "|CHAR:Hips|CHAR:Chest|CHAR:R_Arm|CHAR:R_Hand.rotateZ" 
		"CHARRN.placeHolderList[66]" "";
	setAttr ".ptag" -type "string" "";
lockNode -l 1 ;
createNode script -n "charBase:uiConfigurationScriptNode";
	setAttr ".b" -type "string" (
		"// Maya Mel UI Configuration File.\n//\n//  This script is machine generated.  Edit at your own risk.\n//\n//\n\nglobal string $gMainPane;\nif (`paneLayout -exists $gMainPane`) {\n\n\tglobal int $gUseScenePanelConfig;\n\tint    $useSceneConfig = $gUseScenePanelConfig;\n\tint    $menusOkayInPanels = `optionVar -q allowMenusInPanels`;\tint    $nVisPanes = `paneLayout -q -nvp $gMainPane`;\n\tint    $nPanes = 0;\n\tstring $editorName;\n\tstring $panelName;\n\tstring $itemFilterName;\n\tstring $panelConfig;\n\n\t//\n\t//  get current state of the UI\n\t//\n\tsceneUIReplacement -update $gMainPane;\n\n\t$panelName = `sceneUIReplacement -getNextPanel \"modelPanel\" (localizedPanelLabel(\"Top View\")) `;\n\tif (\"\" == $panelName) {\n\t\tif ($useSceneConfig) {\n\t\t\t$panelName = `modelPanel -unParent -l (localizedPanelLabel(\"Top View\")) -mbv $menusOkayInPanels `;\n\t\t\t$editorName = $panelName;\n            modelEditor -e \n                -camera \"top\" \n                -useInteractiveMode 0\n                -displayLights \"default\" \n                -displayAppearance \"wireframe\" \n"
		+ "                -activeOnly 0\n                -ignorePanZoom 0\n                -wireframeOnShaded 0\n                -headsUpDisplay 1\n                -selectionHiliteDisplay 1\n                -useDefaultMaterial 0\n                -bufferMode \"double\" \n                -twoSidedLighting 1\n                -backfaceCulling 0\n                -xray 0\n                -jointXray 0\n                -activeComponentsXray 0\n                -displayTextures 0\n                -smoothWireframe 0\n                -lineWidth 1\n                -textureAnisotropic 0\n                -textureHilight 1\n                -textureSampling 2\n                -textureDisplay \"modulate\" \n                -textureMaxSize 16384\n                -fogging 0\n                -fogSource \"fragment\" \n                -fogMode \"linear\" \n                -fogStart 0\n                -fogEnd 100\n                -fogDensity 0.1\n                -fogColor 0.5 0.5 0.5 1 \n                -maxConstantTransparency 1\n                -rendererName \"base_OpenGL_Renderer\" \n"
		+ "                -colorResolution 256 256 \n                -bumpResolution 512 512 \n                -textureCompression 0\n                -transparencyAlgorithm \"frontAndBackCull\" \n                -transpInShadows 0\n                -cullingOverride \"none\" \n                -lowQualityLighting 0\n                -maximumNumHardwareLights 1\n                -occlusionCulling 0\n                -shadingModel 0\n                -useBaseRenderer 0\n                -useReducedRenderer 0\n                -smallObjectCulling 0\n                -smallObjectThreshold -1 \n                -interactiveDisableShadows 0\n                -interactiveBackFaceCull 0\n                -sortTransparent 1\n                -nurbsCurves 1\n                -nurbsSurfaces 1\n                -polymeshes 1\n                -subdivSurfaces 1\n                -planes 1\n                -lights 1\n                -cameras 1\n                -controlVertices 1\n                -hulls 1\n                -grid 1\n                -joints 1\n                -ikHandles 1\n"
		+ "                -deformers 1\n                -dynamics 1\n                -fluids 1\n                -hairSystems 1\n                -follicles 1\n                -nCloths 1\n                -nParticles 1\n                -nRigids 1\n                -dynamicConstraints 1\n                -locators 1\n                -manipulators 1\n                -dimensions 1\n                -handles 1\n                -pivots 1\n                -textures 1\n                -strokes 1\n                -shadows 0\n                $editorName;\nmodelEditor -e -viewSelected 0 $editorName;\n\t\t}\n\t} else {\n\t\t$label = `panel -q -label $panelName`;\n\t\tmodelPanel -edit -l (localizedPanelLabel(\"Top View\")) -mbv $menusOkayInPanels  $panelName;\n\t\t$editorName = $panelName;\n        modelEditor -e \n            -camera \"top\" \n            -useInteractiveMode 0\n            -displayLights \"default\" \n            -displayAppearance \"wireframe\" \n            -activeOnly 0\n            -ignorePanZoom 0\n            -wireframeOnShaded 0\n            -headsUpDisplay 1\n            -selectionHiliteDisplay 1\n"
		+ "            -useDefaultMaterial 0\n            -bufferMode \"double\" \n            -twoSidedLighting 1\n            -backfaceCulling 0\n            -xray 0\n            -jointXray 0\n            -activeComponentsXray 0\n            -displayTextures 0\n            -smoothWireframe 0\n            -lineWidth 1\n            -textureAnisotropic 0\n            -textureHilight 1\n            -textureSampling 2\n            -textureDisplay \"modulate\" \n            -textureMaxSize 16384\n            -fogging 0\n            -fogSource \"fragment\" \n            -fogMode \"linear\" \n            -fogStart 0\n            -fogEnd 100\n            -fogDensity 0.1\n            -fogColor 0.5 0.5 0.5 1 \n            -maxConstantTransparency 1\n            -rendererName \"base_OpenGL_Renderer\" \n            -colorResolution 256 256 \n            -bumpResolution 512 512 \n            -textureCompression 0\n            -transparencyAlgorithm \"frontAndBackCull\" \n            -transpInShadows 0\n            -cullingOverride \"none\" \n            -lowQualityLighting 0\n"
		+ "            -maximumNumHardwareLights 1\n            -occlusionCulling 0\n            -shadingModel 0\n            -useBaseRenderer 0\n            -useReducedRenderer 0\n            -smallObjectCulling 0\n            -smallObjectThreshold -1 \n            -interactiveDisableShadows 0\n            -interactiveBackFaceCull 0\n            -sortTransparent 1\n            -nurbsCurves 1\n            -nurbsSurfaces 1\n            -polymeshes 1\n            -subdivSurfaces 1\n            -planes 1\n            -lights 1\n            -cameras 1\n            -controlVertices 1\n            -hulls 1\n            -grid 1\n            -joints 1\n            -ikHandles 1\n            -deformers 1\n            -dynamics 1\n            -fluids 1\n            -hairSystems 1\n            -follicles 1\n            -nCloths 1\n            -nParticles 1\n            -nRigids 1\n            -dynamicConstraints 1\n            -locators 1\n            -manipulators 1\n            -dimensions 1\n            -handles 1\n            -pivots 1\n            -textures 1\n            -strokes 1\n"
		+ "            -shadows 0\n            $editorName;\nmodelEditor -e -viewSelected 0 $editorName;\n\t\tif (!$useSceneConfig) {\n\t\t\tpanel -e -l $label $panelName;\n\t\t}\n\t}\n\n\n\t$panelName = `sceneUIReplacement -getNextPanel \"modelPanel\" (localizedPanelLabel(\"Side View\")) `;\n\tif (\"\" == $panelName) {\n\t\tif ($useSceneConfig) {\n\t\t\t$panelName = `modelPanel -unParent -l (localizedPanelLabel(\"Side View\")) -mbv $menusOkayInPanels `;\n\t\t\t$editorName = $panelName;\n            modelEditor -e \n                -camera \"side\" \n                -useInteractiveMode 0\n                -displayLights \"default\" \n                -displayAppearance \"wireframe\" \n                -activeOnly 0\n                -ignorePanZoom 0\n                -wireframeOnShaded 0\n                -headsUpDisplay 1\n                -selectionHiliteDisplay 1\n                -useDefaultMaterial 0\n                -bufferMode \"double\" \n                -twoSidedLighting 1\n                -backfaceCulling 0\n                -xray 0\n                -jointXray 0\n                -activeComponentsXray 0\n"
		+ "                -displayTextures 0\n                -smoothWireframe 0\n                -lineWidth 1\n                -textureAnisotropic 0\n                -textureHilight 1\n                -textureSampling 2\n                -textureDisplay \"modulate\" \n                -textureMaxSize 16384\n                -fogging 0\n                -fogSource \"fragment\" \n                -fogMode \"linear\" \n                -fogStart 0\n                -fogEnd 100\n                -fogDensity 0.1\n                -fogColor 0.5 0.5 0.5 1 \n                -maxConstantTransparency 1\n                -rendererName \"base_OpenGL_Renderer\" \n                -colorResolution 256 256 \n                -bumpResolution 512 512 \n                -textureCompression 0\n                -transparencyAlgorithm \"frontAndBackCull\" \n                -transpInShadows 0\n                -cullingOverride \"none\" \n                -lowQualityLighting 0\n                -maximumNumHardwareLights 1\n                -occlusionCulling 0\n                -shadingModel 0\n                -useBaseRenderer 0\n"
		+ "                -useReducedRenderer 0\n                -smallObjectCulling 0\n                -smallObjectThreshold -1 \n                -interactiveDisableShadows 0\n                -interactiveBackFaceCull 0\n                -sortTransparent 1\n                -nurbsCurves 1\n                -nurbsSurfaces 1\n                -polymeshes 1\n                -subdivSurfaces 1\n                -planes 1\n                -lights 1\n                -cameras 1\n                -controlVertices 1\n                -hulls 1\n                -grid 1\n                -joints 1\n                -ikHandles 1\n                -deformers 1\n                -dynamics 1\n                -fluids 1\n                -hairSystems 1\n                -follicles 1\n                -nCloths 1\n                -nParticles 1\n                -nRigids 1\n                -dynamicConstraints 1\n                -locators 1\n                -manipulators 1\n                -dimensions 1\n                -handles 1\n                -pivots 1\n                -textures 1\n                -strokes 1\n"
		+ "                -shadows 0\n                $editorName;\nmodelEditor -e -viewSelected 0 $editorName;\n\t\t}\n\t} else {\n\t\t$label = `panel -q -label $panelName`;\n\t\tmodelPanel -edit -l (localizedPanelLabel(\"Side View\")) -mbv $menusOkayInPanels  $panelName;\n\t\t$editorName = $panelName;\n        modelEditor -e \n            -camera \"side\" \n            -useInteractiveMode 0\n            -displayLights \"default\" \n            -displayAppearance \"wireframe\" \n            -activeOnly 0\n            -ignorePanZoom 0\n            -wireframeOnShaded 0\n            -headsUpDisplay 1\n            -selectionHiliteDisplay 1\n            -useDefaultMaterial 0\n            -bufferMode \"double\" \n            -twoSidedLighting 1\n            -backfaceCulling 0\n            -xray 0\n            -jointXray 0\n            -activeComponentsXray 0\n            -displayTextures 0\n            -smoothWireframe 0\n            -lineWidth 1\n            -textureAnisotropic 0\n            -textureHilight 1\n            -textureSampling 2\n            -textureDisplay \"modulate\" \n"
		+ "            -textureMaxSize 16384\n            -fogging 0\n            -fogSource \"fragment\" \n            -fogMode \"linear\" \n            -fogStart 0\n            -fogEnd 100\n            -fogDensity 0.1\n            -fogColor 0.5 0.5 0.5 1 \n            -maxConstantTransparency 1\n            -rendererName \"base_OpenGL_Renderer\" \n            -colorResolution 256 256 \n            -bumpResolution 512 512 \n            -textureCompression 0\n            -transparencyAlgorithm \"frontAndBackCull\" \n            -transpInShadows 0\n            -cullingOverride \"none\" \n            -lowQualityLighting 0\n            -maximumNumHardwareLights 1\n            -occlusionCulling 0\n            -shadingModel 0\n            -useBaseRenderer 0\n            -useReducedRenderer 0\n            -smallObjectCulling 0\n            -smallObjectThreshold -1 \n            -interactiveDisableShadows 0\n            -interactiveBackFaceCull 0\n            -sortTransparent 1\n            -nurbsCurves 1\n            -nurbsSurfaces 1\n            -polymeshes 1\n            -subdivSurfaces 1\n"
		+ "            -planes 1\n            -lights 1\n            -cameras 1\n            -controlVertices 1\n            -hulls 1\n            -grid 1\n            -joints 1\n            -ikHandles 1\n            -deformers 1\n            -dynamics 1\n            -fluids 1\n            -hairSystems 1\n            -follicles 1\n            -nCloths 1\n            -nParticles 1\n            -nRigids 1\n            -dynamicConstraints 1\n            -locators 1\n            -manipulators 1\n            -dimensions 1\n            -handles 1\n            -pivots 1\n            -textures 1\n            -strokes 1\n            -shadows 0\n            $editorName;\nmodelEditor -e -viewSelected 0 $editorName;\n\t\tif (!$useSceneConfig) {\n\t\t\tpanel -e -l $label $panelName;\n\t\t}\n\t}\n\n\n\t$panelName = `sceneUIReplacement -getNextPanel \"modelPanel\" (localizedPanelLabel(\"Front View\")) `;\n\tif (\"\" == $panelName) {\n\t\tif ($useSceneConfig) {\n\t\t\t$panelName = `modelPanel -unParent -l (localizedPanelLabel(\"Front View\")) -mbv $menusOkayInPanels `;\n\t\t\t$editorName = $panelName;\n"
		+ "            modelEditor -e \n                -camera \"front\" \n                -useInteractiveMode 0\n                -displayLights \"default\" \n                -displayAppearance \"wireframe\" \n                -activeOnly 0\n                -ignorePanZoom 0\n                -wireframeOnShaded 0\n                -headsUpDisplay 1\n                -selectionHiliteDisplay 1\n                -useDefaultMaterial 0\n                -bufferMode \"double\" \n                -twoSidedLighting 1\n                -backfaceCulling 0\n                -xray 0\n                -jointXray 0\n                -activeComponentsXray 0\n                -displayTextures 0\n                -smoothWireframe 0\n                -lineWidth 1\n                -textureAnisotropic 0\n                -textureHilight 1\n                -textureSampling 2\n                -textureDisplay \"modulate\" \n                -textureMaxSize 16384\n                -fogging 0\n                -fogSource \"fragment\" \n                -fogMode \"linear\" \n                -fogStart 0\n                -fogEnd 100\n"
		+ "                -fogDensity 0.1\n                -fogColor 0.5 0.5 0.5 1 \n                -maxConstantTransparency 1\n                -rendererName \"base_OpenGL_Renderer\" \n                -colorResolution 256 256 \n                -bumpResolution 512 512 \n                -textureCompression 0\n                -transparencyAlgorithm \"frontAndBackCull\" \n                -transpInShadows 0\n                -cullingOverride \"none\" \n                -lowQualityLighting 0\n                -maximumNumHardwareLights 1\n                -occlusionCulling 0\n                -shadingModel 0\n                -useBaseRenderer 0\n                -useReducedRenderer 0\n                -smallObjectCulling 0\n                -smallObjectThreshold -1 \n                -interactiveDisableShadows 0\n                -interactiveBackFaceCull 0\n                -sortTransparent 1\n                -nurbsCurves 1\n                -nurbsSurfaces 1\n                -polymeshes 1\n                -subdivSurfaces 1\n                -planes 1\n                -lights 1\n"
		+ "                -cameras 1\n                -controlVertices 1\n                -hulls 1\n                -grid 1\n                -joints 1\n                -ikHandles 1\n                -deformers 1\n                -dynamics 1\n                -fluids 1\n                -hairSystems 1\n                -follicles 1\n                -nCloths 1\n                -nParticles 1\n                -nRigids 1\n                -dynamicConstraints 1\n                -locators 1\n                -manipulators 1\n                -dimensions 1\n                -handles 1\n                -pivots 1\n                -textures 1\n                -strokes 1\n                -shadows 0\n                $editorName;\nmodelEditor -e -viewSelected 0 $editorName;\n\t\t}\n\t} else {\n\t\t$label = `panel -q -label $panelName`;\n\t\tmodelPanel -edit -l (localizedPanelLabel(\"Front View\")) -mbv $menusOkayInPanels  $panelName;\n\t\t$editorName = $panelName;\n        modelEditor -e \n            -camera \"front\" \n            -useInteractiveMode 0\n            -displayLights \"default\" \n"
		+ "            -displayAppearance \"wireframe\" \n            -activeOnly 0\n            -ignorePanZoom 0\n            -wireframeOnShaded 0\n            -headsUpDisplay 1\n            -selectionHiliteDisplay 1\n            -useDefaultMaterial 0\n            -bufferMode \"double\" \n            -twoSidedLighting 1\n            -backfaceCulling 0\n            -xray 0\n            -jointXray 0\n            -activeComponentsXray 0\n            -displayTextures 0\n            -smoothWireframe 0\n            -lineWidth 1\n            -textureAnisotropic 0\n            -textureHilight 1\n            -textureSampling 2\n            -textureDisplay \"modulate\" \n            -textureMaxSize 16384\n            -fogging 0\n            -fogSource \"fragment\" \n            -fogMode \"linear\" \n            -fogStart 0\n            -fogEnd 100\n            -fogDensity 0.1\n            -fogColor 0.5 0.5 0.5 1 \n            -maxConstantTransparency 1\n            -rendererName \"base_OpenGL_Renderer\" \n            -colorResolution 256 256 \n            -bumpResolution 512 512 \n"
		+ "            -textureCompression 0\n            -transparencyAlgorithm \"frontAndBackCull\" \n            -transpInShadows 0\n            -cullingOverride \"none\" \n            -lowQualityLighting 0\n            -maximumNumHardwareLights 1\n            -occlusionCulling 0\n            -shadingModel 0\n            -useBaseRenderer 0\n            -useReducedRenderer 0\n            -smallObjectCulling 0\n            -smallObjectThreshold -1 \n            -interactiveDisableShadows 0\n            -interactiveBackFaceCull 0\n            -sortTransparent 1\n            -nurbsCurves 1\n            -nurbsSurfaces 1\n            -polymeshes 1\n            -subdivSurfaces 1\n            -planes 1\n            -lights 1\n            -cameras 1\n            -controlVertices 1\n            -hulls 1\n            -grid 1\n            -joints 1\n            -ikHandles 1\n            -deformers 1\n            -dynamics 1\n            -fluids 1\n            -hairSystems 1\n            -follicles 1\n            -nCloths 1\n            -nParticles 1\n            -nRigids 1\n"
		+ "            -dynamicConstraints 1\n            -locators 1\n            -manipulators 1\n            -dimensions 1\n            -handles 1\n            -pivots 1\n            -textures 1\n            -strokes 1\n            -shadows 0\n            $editorName;\nmodelEditor -e -viewSelected 0 $editorName;\n\t\tif (!$useSceneConfig) {\n\t\t\tpanel -e -l $label $panelName;\n\t\t}\n\t}\n\n\n\t$panelName = `sceneUIReplacement -getNextPanel \"modelPanel\" (localizedPanelLabel(\"Persp View\")) `;\n\tif (\"\" == $panelName) {\n\t\tif ($useSceneConfig) {\n\t\t\t$panelName = `modelPanel -unParent -l (localizedPanelLabel(\"Persp View\")) -mbv $menusOkayInPanels `;\n\t\t\t$editorName = $panelName;\n            modelEditor -e \n                -camera \"persp\" \n                -useInteractiveMode 0\n                -displayLights \"default\" \n                -displayAppearance \"wireframe\" \n                -activeOnly 0\n                -ignorePanZoom 0\n                -wireframeOnShaded 0\n                -headsUpDisplay 1\n                -selectionHiliteDisplay 1\n                -useDefaultMaterial 0\n"
		+ "                -bufferMode \"double\" \n                -twoSidedLighting 1\n                -backfaceCulling 0\n                -xray 0\n                -jointXray 0\n                -activeComponentsXray 0\n                -displayTextures 0\n                -smoothWireframe 0\n                -lineWidth 1\n                -textureAnisotropic 0\n                -textureHilight 1\n                -textureSampling 2\n                -textureDisplay \"modulate\" \n                -textureMaxSize 16384\n                -fogging 0\n                -fogSource \"fragment\" \n                -fogMode \"linear\" \n                -fogStart 0\n                -fogEnd 100\n                -fogDensity 0.1\n                -fogColor 0.5 0.5 0.5 1 \n                -maxConstantTransparency 1\n                -rendererName \"base_OpenGL_Renderer\" \n                -colorResolution 256 256 \n                -bumpResolution 512 512 \n                -textureCompression 0\n                -transparencyAlgorithm \"frontAndBackCull\" \n                -transpInShadows 0\n"
		+ "                -cullingOverride \"none\" \n                -lowQualityLighting 0\n                -maximumNumHardwareLights 1\n                -occlusionCulling 0\n                -shadingModel 0\n                -useBaseRenderer 0\n                -useReducedRenderer 0\n                -smallObjectCulling 0\n                -smallObjectThreshold -1 \n                -interactiveDisableShadows 0\n                -interactiveBackFaceCull 0\n                -sortTransparent 1\n                -nurbsCurves 1\n                -nurbsSurfaces 1\n                -polymeshes 1\n                -subdivSurfaces 1\n                -planes 1\n                -lights 1\n                -cameras 1\n                -controlVertices 1\n                -hulls 1\n                -grid 1\n                -joints 1\n                -ikHandles 1\n                -deformers 1\n                -dynamics 1\n                -fluids 1\n                -hairSystems 1\n                -follicles 1\n                -nCloths 1\n                -nParticles 1\n                -nRigids 1\n"
		+ "                -dynamicConstraints 1\n                -locators 1\n                -manipulators 1\n                -dimensions 1\n                -handles 1\n                -pivots 1\n                -textures 1\n                -strokes 1\n                -shadows 0\n                $editorName;\nmodelEditor -e -viewSelected 0 $editorName;\n\t\t}\n\t} else {\n\t\t$label = `panel -q -label $panelName`;\n\t\tmodelPanel -edit -l (localizedPanelLabel(\"Persp View\")) -mbv $menusOkayInPanels  $panelName;\n\t\t$editorName = $panelName;\n        modelEditor -e \n            -camera \"persp\" \n            -useInteractiveMode 0\n            -displayLights \"default\" \n            -displayAppearance \"wireframe\" \n            -activeOnly 0\n            -ignorePanZoom 0\n            -wireframeOnShaded 0\n            -headsUpDisplay 1\n            -selectionHiliteDisplay 1\n            -useDefaultMaterial 0\n            -bufferMode \"double\" \n            -twoSidedLighting 1\n            -backfaceCulling 0\n            -xray 0\n            -jointXray 0\n            -activeComponentsXray 0\n"
		+ "            -displayTextures 0\n            -smoothWireframe 0\n            -lineWidth 1\n            -textureAnisotropic 0\n            -textureHilight 1\n            -textureSampling 2\n            -textureDisplay \"modulate\" \n            -textureMaxSize 16384\n            -fogging 0\n            -fogSource \"fragment\" \n            -fogMode \"linear\" \n            -fogStart 0\n            -fogEnd 100\n            -fogDensity 0.1\n            -fogColor 0.5 0.5 0.5 1 \n            -maxConstantTransparency 1\n            -rendererName \"base_OpenGL_Renderer\" \n            -colorResolution 256 256 \n            -bumpResolution 512 512 \n            -textureCompression 0\n            -transparencyAlgorithm \"frontAndBackCull\" \n            -transpInShadows 0\n            -cullingOverride \"none\" \n            -lowQualityLighting 0\n            -maximumNumHardwareLights 1\n            -occlusionCulling 0\n            -shadingModel 0\n            -useBaseRenderer 0\n            -useReducedRenderer 0\n            -smallObjectCulling 0\n            -smallObjectThreshold -1 \n"
		+ "            -interactiveDisableShadows 0\n            -interactiveBackFaceCull 0\n            -sortTransparent 1\n            -nurbsCurves 1\n            -nurbsSurfaces 1\n            -polymeshes 1\n            -subdivSurfaces 1\n            -planes 1\n            -lights 1\n            -cameras 1\n            -controlVertices 1\n            -hulls 1\n            -grid 1\n            -joints 1\n            -ikHandles 1\n            -deformers 1\n            -dynamics 1\n            -fluids 1\n            -hairSystems 1\n            -follicles 1\n            -nCloths 1\n            -nParticles 1\n            -nRigids 1\n            -dynamicConstraints 1\n            -locators 1\n            -manipulators 1\n            -dimensions 1\n            -handles 1\n            -pivots 1\n            -textures 1\n            -strokes 1\n            -shadows 0\n            $editorName;\nmodelEditor -e -viewSelected 0 $editorName;\n\t\tif (!$useSceneConfig) {\n\t\t\tpanel -e -l $label $panelName;\n\t\t}\n\t}\n\n\n\t$panelName = `sceneUIReplacement -getNextPanel \"outlinerPanel\" (localizedPanelLabel(\"Outliner\")) `;\n"
		+ "\tif (\"\" == $panelName) {\n\t\tif ($useSceneConfig) {\n\t\t\t$panelName = `outlinerPanel -unParent -l (localizedPanelLabel(\"Outliner\")) -mbv $menusOkayInPanels `;\n\t\t\t$editorName = $panelName;\n            outlinerEditor -e \n                -docTag \"isolOutln_fromSeln\" \n                -showShapes 0\n                -showAttributes 0\n                -showConnected 0\n                -showAnimCurvesOnly 0\n                -showMuteInfo 1\n                -organizeByLayer 1\n                -showAnimLayerWeight 1\n                -autoExpandLayers 1\n                -autoExpand 0\n                -showDagOnly 0\n                -showAssets 1\n                -showContainedOnly 1\n                -showPublishedAsConnected 0\n                -showContainerContents 1\n                -ignoreDagHierarchy 0\n                -expandConnections 0\n                -showUpstreamCurves 1\n                -showUnitlessCurves 1\n                -showCompounds 1\n                -showLeafs 1\n                -showNumericAttrsOnly 0\n                -highlightActive 1\n"
		+ "                -autoSelectNewObjects 0\n                -doNotSelectNewObjects 0\n                -dropIsParent 1\n                -transmitFilters 0\n                -setFilter \"defaultSetFilter\" \n                -showSetMembers 1\n                -allowMultiSelection 1\n                -alwaysToggleSelect 0\n                -directSelect 0\n                -displayMode \"DAG\" \n                -expandObjects 0\n                -setsIgnoreFilters 1\n                -containersIgnoreFilters 0\n                -editAttrName 0\n                -showAttrValues 0\n                -highlightSecondary 0\n                -showUVAttrsOnly 0\n                -showTextureNodesOnly 0\n                -attrAlphaOrder \"default\" \n                -animLayerFilterOptions \"allAffecting\" \n                -sortOrder \"none\" \n                -longNames 0\n                -niceNames 1\n                -showNamespace 1\n                -showPinIcons 0\n                $editorName;\n\t\t}\n\t} else {\n\t\t$label = `panel -q -label $panelName`;\n\t\toutlinerPanel -edit -l (localizedPanelLabel(\"Outliner\")) -mbv $menusOkayInPanels  $panelName;\n"
		+ "\t\t$editorName = $panelName;\n        outlinerEditor -e \n            -docTag \"isolOutln_fromSeln\" \n            -showShapes 0\n            -showAttributes 0\n            -showConnected 0\n            -showAnimCurvesOnly 0\n            -showMuteInfo 1\n            -organizeByLayer 1\n            -showAnimLayerWeight 1\n            -autoExpandLayers 1\n            -autoExpand 0\n            -showDagOnly 0\n            -showAssets 1\n            -showContainedOnly 1\n            -showPublishedAsConnected 0\n            -showContainerContents 1\n            -ignoreDagHierarchy 0\n            -expandConnections 0\n            -showUpstreamCurves 1\n            -showUnitlessCurves 1\n            -showCompounds 1\n            -showLeafs 1\n            -showNumericAttrsOnly 0\n            -highlightActive 1\n            -autoSelectNewObjects 0\n            -doNotSelectNewObjects 0\n            -dropIsParent 1\n            -transmitFilters 0\n            -setFilter \"defaultSetFilter\" \n            -showSetMembers 1\n            -allowMultiSelection 1\n"
		+ "            -alwaysToggleSelect 0\n            -directSelect 0\n            -displayMode \"DAG\" \n            -expandObjects 0\n            -setsIgnoreFilters 1\n            -containersIgnoreFilters 0\n            -editAttrName 0\n            -showAttrValues 0\n            -highlightSecondary 0\n            -showUVAttrsOnly 0\n            -showTextureNodesOnly 0\n            -attrAlphaOrder \"default\" \n            -animLayerFilterOptions \"allAffecting\" \n            -sortOrder \"none\" \n            -longNames 0\n            -niceNames 1\n            -showNamespace 1\n            -showPinIcons 0\n            $editorName;\n\t\tif (!$useSceneConfig) {\n\t\t\tpanel -e -l $label $panelName;\n\t\t}\n\t}\n\n\n\t$panelName = `sceneUIReplacement -getNextScriptedPanel \"graphEditor\" (localizedPanelLabel(\"Graph Editor\")) `;\n\tif (\"\" == $panelName) {\n\t\tif ($useSceneConfig) {\n\t\t\t$panelName = `scriptedPanel -unParent  -type \"graphEditor\" -l (localizedPanelLabel(\"Graph Editor\")) -mbv $menusOkayInPanels `;\n\n\t\t\t$editorName = ($panelName+\"OutlineEd\");\n            outlinerEditor -e \n"
		+ "                -showShapes 1\n                -showAttributes 1\n                -showConnected 1\n                -showAnimCurvesOnly 1\n                -showMuteInfo 0\n                -organizeByLayer 1\n                -showAnimLayerWeight 1\n                -autoExpandLayers 1\n                -autoExpand 1\n                -showDagOnly 0\n                -showAssets 1\n                -showContainedOnly 0\n                -showPublishedAsConnected 0\n                -showContainerContents 0\n                -ignoreDagHierarchy 0\n                -expandConnections 1\n                -showUpstreamCurves 1\n                -showUnitlessCurves 1\n                -showCompounds 0\n                -showLeafs 1\n                -showNumericAttrsOnly 1\n                -highlightActive 0\n                -autoSelectNewObjects 1\n                -doNotSelectNewObjects 0\n                -dropIsParent 1\n                -transmitFilters 1\n                -setFilter \"0\" \n                -showSetMembers 0\n                -allowMultiSelection 1\n"
		+ "                -alwaysToggleSelect 0\n                -directSelect 0\n                -displayMode \"DAG\" \n                -expandObjects 0\n                -setsIgnoreFilters 1\n                -containersIgnoreFilters 0\n                -editAttrName 0\n                -showAttrValues 0\n                -highlightSecondary 0\n                -showUVAttrsOnly 0\n                -showTextureNodesOnly 0\n                -attrAlphaOrder \"default\" \n                -animLayerFilterOptions \"allAffecting\" \n                -sortOrder \"none\" \n                -longNames 0\n                -niceNames 1\n                -showNamespace 1\n                -showPinIcons 1\n                $editorName;\n\n\t\t\t$editorName = ($panelName+\"GraphEd\");\n            animCurveEditor -e \n                -displayKeys 1\n                -displayTangents 0\n                -displayActiveKeys 0\n                -displayActiveKeyTangents 1\n                -displayInfinities 0\n                -autoFit 0\n                -snapTime \"integer\" \n                -snapValue \"none\" \n"
		+ "                -showResults \"off\" \n                -showBufferCurves \"off\" \n                -smoothness \"fine\" \n                -resultSamples 1\n                -resultScreenSamples 0\n                -resultUpdate \"delayed\" \n                -showUpstreamCurves 1\n                -stackedCurves 0\n                -stackedCurvesMin -1\n                -stackedCurvesMax 1\n                -stackedCurvesSpace 0.2\n                -displayNormalized 0\n                -preSelectionHighlight 0\n                -constrainDrag 0\n                $editorName;\n\t\t}\n\t} else {\n\t\t$label = `panel -q -label $panelName`;\n\t\tscriptedPanel -edit -l (localizedPanelLabel(\"Graph Editor\")) -mbv $menusOkayInPanels  $panelName;\n\n\t\t\t$editorName = ($panelName+\"OutlineEd\");\n            outlinerEditor -e \n                -showShapes 1\n                -showAttributes 1\n                -showConnected 1\n                -showAnimCurvesOnly 1\n                -showMuteInfo 0\n                -organizeByLayer 1\n                -showAnimLayerWeight 1\n                -autoExpandLayers 1\n"
		+ "                -autoExpand 1\n                -showDagOnly 0\n                -showAssets 1\n                -showContainedOnly 0\n                -showPublishedAsConnected 0\n                -showContainerContents 0\n                -ignoreDagHierarchy 0\n                -expandConnections 1\n                -showUpstreamCurves 1\n                -showUnitlessCurves 1\n                -showCompounds 0\n                -showLeafs 1\n                -showNumericAttrsOnly 1\n                -highlightActive 0\n                -autoSelectNewObjects 1\n                -doNotSelectNewObjects 0\n                -dropIsParent 1\n                -transmitFilters 1\n                -setFilter \"0\" \n                -showSetMembers 0\n                -allowMultiSelection 1\n                -alwaysToggleSelect 0\n                -directSelect 0\n                -displayMode \"DAG\" \n                -expandObjects 0\n                -setsIgnoreFilters 1\n                -containersIgnoreFilters 0\n                -editAttrName 0\n                -showAttrValues 0\n"
		+ "                -highlightSecondary 0\n                -showUVAttrsOnly 0\n                -showTextureNodesOnly 0\n                -attrAlphaOrder \"default\" \n                -animLayerFilterOptions \"allAffecting\" \n                -sortOrder \"none\" \n                -longNames 0\n                -niceNames 1\n                -showNamespace 1\n                -showPinIcons 1\n                $editorName;\n\n\t\t\t$editorName = ($panelName+\"GraphEd\");\n            animCurveEditor -e \n                -displayKeys 1\n                -displayTangents 0\n                -displayActiveKeys 0\n                -displayActiveKeyTangents 1\n                -displayInfinities 0\n                -autoFit 0\n                -snapTime \"integer\" \n                -snapValue \"none\" \n                -showResults \"off\" \n                -showBufferCurves \"off\" \n                -smoothness \"fine\" \n                -resultSamples 1\n                -resultScreenSamples 0\n                -resultUpdate \"delayed\" \n                -showUpstreamCurves 1\n                -stackedCurves 0\n"
		+ "                -stackedCurvesMin -1\n                -stackedCurvesMax 1\n                -stackedCurvesSpace 0.2\n                -displayNormalized 0\n                -preSelectionHighlight 0\n                -constrainDrag 0\n                $editorName;\n\t\tif (!$useSceneConfig) {\n\t\t\tpanel -e -l $label $panelName;\n\t\t}\n\t}\n\n\n\t$panelName = `sceneUIReplacement -getNextScriptedPanel \"dopeSheetPanel\" (localizedPanelLabel(\"Dope Sheet\")) `;\n\tif (\"\" == $panelName) {\n\t\tif ($useSceneConfig) {\n\t\t\t$panelName = `scriptedPanel -unParent  -type \"dopeSheetPanel\" -l (localizedPanelLabel(\"Dope Sheet\")) -mbv $menusOkayInPanels `;\n\n\t\t\t$editorName = ($panelName+\"OutlineEd\");\n            outlinerEditor -e \n                -showShapes 1\n                -showAttributes 1\n                -showConnected 1\n                -showAnimCurvesOnly 1\n                -showMuteInfo 0\n                -organizeByLayer 1\n                -showAnimLayerWeight 1\n                -autoExpandLayers 1\n                -autoExpand 0\n                -showDagOnly 0\n"
		+ "                -showAssets 1\n                -showContainedOnly 0\n                -showPublishedAsConnected 0\n                -showContainerContents 0\n                -ignoreDagHierarchy 0\n                -expandConnections 1\n                -showUpstreamCurves 1\n                -showUnitlessCurves 0\n                -showCompounds 1\n                -showLeafs 1\n                -showNumericAttrsOnly 1\n                -highlightActive 0\n                -autoSelectNewObjects 0\n                -doNotSelectNewObjects 1\n                -dropIsParent 1\n                -transmitFilters 0\n                -setFilter \"0\" \n                -showSetMembers 0\n                -allowMultiSelection 1\n                -alwaysToggleSelect 0\n                -directSelect 0\n                -displayMode \"DAG\" \n                -expandObjects 0\n                -setsIgnoreFilters 1\n                -containersIgnoreFilters 0\n                -editAttrName 0\n                -showAttrValues 0\n                -highlightSecondary 0\n                -showUVAttrsOnly 0\n"
		+ "                -showTextureNodesOnly 0\n                -attrAlphaOrder \"default\" \n                -animLayerFilterOptions \"allAffecting\" \n                -sortOrder \"none\" \n                -longNames 0\n                -niceNames 1\n                -showNamespace 1\n                -showPinIcons 0\n                $editorName;\n\n\t\t\t$editorName = ($panelName+\"DopeSheetEd\");\n            dopeSheetEditor -e \n                -displayKeys 1\n                -displayTangents 0\n                -displayActiveKeys 0\n                -displayActiveKeyTangents 0\n                -displayInfinities 0\n                -autoFit 0\n                -snapTime \"integer\" \n                -snapValue \"none\" \n                -outliner \"dopeSheetPanel1OutlineEd\" \n                -showSummary 1\n                -showScene 0\n                -hierarchyBelow 0\n                -showTicks 1\n                -selectionWindow 0 0 0 0 \n                $editorName;\n\t\t}\n\t} else {\n\t\t$label = `panel -q -label $panelName`;\n\t\tscriptedPanel -edit -l (localizedPanelLabel(\"Dope Sheet\")) -mbv $menusOkayInPanels  $panelName;\n"
		+ "\t\t\t$editorName = ($panelName+\"OutlineEd\");\n            outlinerEditor -e \n                -showShapes 1\n                -showAttributes 1\n                -showConnected 1\n                -showAnimCurvesOnly 1\n                -showMuteInfo 0\n                -organizeByLayer 1\n                -showAnimLayerWeight 1\n                -autoExpandLayers 1\n                -autoExpand 0\n                -showDagOnly 0\n                -showAssets 1\n                -showContainedOnly 0\n                -showPublishedAsConnected 0\n                -showContainerContents 0\n                -ignoreDagHierarchy 0\n                -expandConnections 1\n                -showUpstreamCurves 1\n                -showUnitlessCurves 0\n                -showCompounds 1\n                -showLeafs 1\n                -showNumericAttrsOnly 1\n                -highlightActive 0\n                -autoSelectNewObjects 0\n                -doNotSelectNewObjects 1\n                -dropIsParent 1\n                -transmitFilters 0\n                -setFilter \"0\" \n"
		+ "                -showSetMembers 0\n                -allowMultiSelection 1\n                -alwaysToggleSelect 0\n                -directSelect 0\n                -displayMode \"DAG\" \n                -expandObjects 0\n                -setsIgnoreFilters 1\n                -containersIgnoreFilters 0\n                -editAttrName 0\n                -showAttrValues 0\n                -highlightSecondary 0\n                -showUVAttrsOnly 0\n                -showTextureNodesOnly 0\n                -attrAlphaOrder \"default\" \n                -animLayerFilterOptions \"allAffecting\" \n                -sortOrder \"none\" \n                -longNames 0\n                -niceNames 1\n                -showNamespace 1\n                -showPinIcons 0\n                $editorName;\n\n\t\t\t$editorName = ($panelName+\"DopeSheetEd\");\n            dopeSheetEditor -e \n                -displayKeys 1\n                -displayTangents 0\n                -displayActiveKeys 0\n                -displayActiveKeyTangents 0\n                -displayInfinities 0\n                -autoFit 0\n"
		+ "                -snapTime \"integer\" \n                -snapValue \"none\" \n                -outliner \"dopeSheetPanel1OutlineEd\" \n                -showSummary 1\n                -showScene 0\n                -hierarchyBelow 0\n                -showTicks 1\n                -selectionWindow 0 0 0 0 \n                $editorName;\n\t\tif (!$useSceneConfig) {\n\t\t\tpanel -e -l $label $panelName;\n\t\t}\n\t}\n\n\n\t$panelName = `sceneUIReplacement -getNextScriptedPanel \"clipEditorPanel\" (localizedPanelLabel(\"Trax Editor\")) `;\n\tif (\"\" == $panelName) {\n\t\tif ($useSceneConfig) {\n\t\t\t$panelName = `scriptedPanel -unParent  -type \"clipEditorPanel\" -l (localizedPanelLabel(\"Trax Editor\")) -mbv $menusOkayInPanels `;\n\n\t\t\t$editorName = clipEditorNameFromPanel($panelName);\n            clipEditor -e \n                -displayKeys 0\n                -displayTangents 0\n                -displayActiveKeys 0\n                -displayActiveKeyTangents 0\n                -displayInfinities 0\n                -autoFit 0\n                -snapTime \"none\" \n                -snapValue \"none\" \n"
		+ "                -manageSequencer 0 \n                $editorName;\n\t\t}\n\t} else {\n\t\t$label = `panel -q -label $panelName`;\n\t\tscriptedPanel -edit -l (localizedPanelLabel(\"Trax Editor\")) -mbv $menusOkayInPanels  $panelName;\n\n\t\t\t$editorName = clipEditorNameFromPanel($panelName);\n            clipEditor -e \n                -displayKeys 0\n                -displayTangents 0\n                -displayActiveKeys 0\n                -displayActiveKeyTangents 0\n                -displayInfinities 0\n                -autoFit 0\n                -snapTime \"none\" \n                -snapValue \"none\" \n                -manageSequencer 0 \n                $editorName;\n\t\tif (!$useSceneConfig) {\n\t\t\tpanel -e -l $label $panelName;\n\t\t}\n\t}\n\n\n\t$panelName = `sceneUIReplacement -getNextScriptedPanel \"sequenceEditorPanel\" (localizedPanelLabel(\"Camera Sequencer\")) `;\n\tif (\"\" == $panelName) {\n\t\tif ($useSceneConfig) {\n\t\t\t$panelName = `scriptedPanel -unParent  -type \"sequenceEditorPanel\" -l (localizedPanelLabel(\"Camera Sequencer\")) -mbv $menusOkayInPanels `;\n"
		+ "\t\t\t$editorName = sequenceEditorNameFromPanel($panelName);\n            clipEditor -e \n                -displayKeys 0\n                -displayTangents 0\n                -displayActiveKeys 0\n                -displayActiveKeyTangents 0\n                -displayInfinities 0\n                -autoFit 0\n                -snapTime \"none\" \n                -snapValue \"none\" \n                -manageSequencer 1 \n                $editorName;\n\t\t}\n\t} else {\n\t\t$label = `panel -q -label $panelName`;\n\t\tscriptedPanel -edit -l (localizedPanelLabel(\"Camera Sequencer\")) -mbv $menusOkayInPanels  $panelName;\n\n\t\t\t$editorName = sequenceEditorNameFromPanel($panelName);\n            clipEditor -e \n                -displayKeys 0\n                -displayTangents 0\n                -displayActiveKeys 0\n                -displayActiveKeyTangents 0\n                -displayInfinities 0\n                -autoFit 0\n                -snapTime \"none\" \n                -snapValue \"none\" \n                -manageSequencer 1 \n                $editorName;\n\t\tif (!$useSceneConfig) {\n"
		+ "\t\t\tpanel -e -l $label $panelName;\n\t\t}\n\t}\n\n\n\t$panelName = `sceneUIReplacement -getNextScriptedPanel \"hyperGraphPanel\" (localizedPanelLabel(\"Hypergraph Hierarchy\")) `;\n\tif (\"\" == $panelName) {\n\t\tif ($useSceneConfig) {\n\t\t\t$panelName = `scriptedPanel -unParent  -type \"hyperGraphPanel\" -l (localizedPanelLabel(\"Hypergraph Hierarchy\")) -mbv $menusOkayInPanels `;\n\n\t\t\t$editorName = ($panelName+\"HyperGraphEd\");\n            hyperGraph -e \n                -graphLayoutStyle \"hierarchicalLayout\" \n                -orientation \"horiz\" \n                -mergeConnections 0\n                -zoom 1\n                -animateTransition 0\n                -showRelationships 1\n                -showShapes 0\n                -showDeformers 0\n                -showExpressions 0\n                -showConstraints 0\n                -showUnderworld 0\n                -showInvisible 0\n                -transitionFrames 1\n                -opaqueContainers 0\n                -freeform 0\n                -imagePosition 0 0 \n                -imageScale 1\n"
		+ "                -imageEnabled 0\n                -graphType \"DAG\" \n                -heatMapDisplay 0\n                -updateSelection 1\n                -updateNodeAdded 1\n                -useDrawOverrideColor 0\n                -limitGraphTraversal -1\n                -range 0 0 \n                -iconSize \"smallIcons\" \n                -showCachedConnections 0\n                $editorName;\n\t\t}\n\t} else {\n\t\t$label = `panel -q -label $panelName`;\n\t\tscriptedPanel -edit -l (localizedPanelLabel(\"Hypergraph Hierarchy\")) -mbv $menusOkayInPanels  $panelName;\n\n\t\t\t$editorName = ($panelName+\"HyperGraphEd\");\n            hyperGraph -e \n                -graphLayoutStyle \"hierarchicalLayout\" \n                -orientation \"horiz\" \n                -mergeConnections 0\n                -zoom 1\n                -animateTransition 0\n                -showRelationships 1\n                -showShapes 0\n                -showDeformers 0\n                -showExpressions 0\n                -showConstraints 0\n                -showUnderworld 0\n                -showInvisible 0\n"
		+ "                -transitionFrames 1\n                -opaqueContainers 0\n                -freeform 0\n                -imagePosition 0 0 \n                -imageScale 1\n                -imageEnabled 0\n                -graphType \"DAG\" \n                -heatMapDisplay 0\n                -updateSelection 1\n                -updateNodeAdded 1\n                -useDrawOverrideColor 0\n                -limitGraphTraversal -1\n                -range 0 0 \n                -iconSize \"smallIcons\" \n                -showCachedConnections 0\n                $editorName;\n\t\tif (!$useSceneConfig) {\n\t\t\tpanel -e -l $label $panelName;\n\t\t}\n\t}\n\n\n\t$panelName = `sceneUIReplacement -getNextScriptedPanel \"hyperShadePanel\" (localizedPanelLabel(\"Hypershade\")) `;\n\tif (\"\" == $panelName) {\n\t\tif ($useSceneConfig) {\n\t\t\t$panelName = `scriptedPanel -unParent  -type \"hyperShadePanel\" -l (localizedPanelLabel(\"Hypershade\")) -mbv $menusOkayInPanels `;\n\t\t}\n\t} else {\n\t\t$label = `panel -q -label $panelName`;\n\t\tscriptedPanel -edit -l (localizedPanelLabel(\"Hypershade\")) -mbv $menusOkayInPanels  $panelName;\n"
		+ "\t\tif (!$useSceneConfig) {\n\t\t\tpanel -e -l $label $panelName;\n\t\t}\n\t}\n\n\n\t$panelName = `sceneUIReplacement -getNextScriptedPanel \"visorPanel\" (localizedPanelLabel(\"Visor\")) `;\n\tif (\"\" == $panelName) {\n\t\tif ($useSceneConfig) {\n\t\t\t$panelName = `scriptedPanel -unParent  -type \"visorPanel\" -l (localizedPanelLabel(\"Visor\")) -mbv $menusOkayInPanels `;\n\t\t}\n\t} else {\n\t\t$label = `panel -q -label $panelName`;\n\t\tscriptedPanel -edit -l (localizedPanelLabel(\"Visor\")) -mbv $menusOkayInPanels  $panelName;\n\t\tif (!$useSceneConfig) {\n\t\t\tpanel -e -l $label $panelName;\n\t\t}\n\t}\n\n\n\t$panelName = `sceneUIReplacement -getNextScriptedPanel \"polyTexturePlacementPanel\" (localizedPanelLabel(\"UV Texture Editor\")) `;\n\tif (\"\" == $panelName) {\n\t\tif ($useSceneConfig) {\n\t\t\t$panelName = `scriptedPanel -unParent  -type \"polyTexturePlacementPanel\" -l (localizedPanelLabel(\"UV Texture Editor\")) -mbv $menusOkayInPanels `;\n\t\t}\n\t} else {\n\t\t$label = `panel -q -label $panelName`;\n\t\tscriptedPanel -edit -l (localizedPanelLabel(\"UV Texture Editor\")) -mbv $menusOkayInPanels  $panelName;\n"
		+ "\t\tif (!$useSceneConfig) {\n\t\t\tpanel -e -l $label $panelName;\n\t\t}\n\t}\n\n\n\t$panelName = `sceneUIReplacement -getNextScriptedPanel \"renderWindowPanel\" (localizedPanelLabel(\"Render View\")) `;\n\tif (\"\" == $panelName) {\n\t\tif ($useSceneConfig) {\n\t\t\t$panelName = `scriptedPanel -unParent  -type \"renderWindowPanel\" -l (localizedPanelLabel(\"Render View\")) -mbv $menusOkayInPanels `;\n\t\t}\n\t} else {\n\t\t$label = `panel -q -label $panelName`;\n\t\tscriptedPanel -edit -l (localizedPanelLabel(\"Render View\")) -mbv $menusOkayInPanels  $panelName;\n\t\tif (!$useSceneConfig) {\n\t\t\tpanel -e -l $label $panelName;\n\t\t}\n\t}\n\n\n\t$panelName = `sceneUIReplacement -getNextPanel \"blendShapePanel\" (localizedPanelLabel(\"Blend Shape\")) `;\n\tif (\"\" == $panelName) {\n\t\tif ($useSceneConfig) {\n\t\t\tblendShapePanel -unParent -l (localizedPanelLabel(\"Blend Shape\")) -mbv $menusOkayInPanels ;\n\t\t}\n\t} else {\n\t\t$label = `panel -q -label $panelName`;\n\t\tblendShapePanel -edit -l (localizedPanelLabel(\"Blend Shape\")) -mbv $menusOkayInPanels  $panelName;\n\t\tif (!$useSceneConfig) {\n"
		+ "\t\t\tpanel -e -l $label $panelName;\n\t\t}\n\t}\n\n\n\t$panelName = `sceneUIReplacement -getNextScriptedPanel \"dynRelEdPanel\" (localizedPanelLabel(\"Dynamic Relationships\")) `;\n\tif (\"\" == $panelName) {\n\t\tif ($useSceneConfig) {\n\t\t\t$panelName = `scriptedPanel -unParent  -type \"dynRelEdPanel\" -l (localizedPanelLabel(\"Dynamic Relationships\")) -mbv $menusOkayInPanels `;\n\t\t}\n\t} else {\n\t\t$label = `panel -q -label $panelName`;\n\t\tscriptedPanel -edit -l (localizedPanelLabel(\"Dynamic Relationships\")) -mbv $menusOkayInPanels  $panelName;\n\t\tif (!$useSceneConfig) {\n\t\t\tpanel -e -l $label $panelName;\n\t\t}\n\t}\n\n\n\t$panelName = `sceneUIReplacement -getNextScriptedPanel \"relationshipPanel\" (localizedPanelLabel(\"Relationship Editor\")) `;\n\tif (\"\" == $panelName) {\n\t\tif ($useSceneConfig) {\n\t\t\t$panelName = `scriptedPanel -unParent  -type \"relationshipPanel\" -l (localizedPanelLabel(\"Relationship Editor\")) -mbv $menusOkayInPanels `;\n\t\t}\n\t} else {\n\t\t$label = `panel -q -label $panelName`;\n\t\tscriptedPanel -edit -l (localizedPanelLabel(\"Relationship Editor\")) -mbv $menusOkayInPanels  $panelName;\n"
		+ "\t\tif (!$useSceneConfig) {\n\t\t\tpanel -e -l $label $panelName;\n\t\t}\n\t}\n\n\n\t$panelName = `sceneUIReplacement -getNextScriptedPanel \"referenceEditorPanel\" (localizedPanelLabel(\"Reference Editor\")) `;\n\tif (\"\" == $panelName) {\n\t\tif ($useSceneConfig) {\n\t\t\t$panelName = `scriptedPanel -unParent  -type \"referenceEditorPanel\" -l (localizedPanelLabel(\"Reference Editor\")) -mbv $menusOkayInPanels `;\n\t\t}\n\t} else {\n\t\t$label = `panel -q -label $panelName`;\n\t\tscriptedPanel -edit -l (localizedPanelLabel(\"Reference Editor\")) -mbv $menusOkayInPanels  $panelName;\n\t\tif (!$useSceneConfig) {\n\t\t\tpanel -e -l $label $panelName;\n\t\t}\n\t}\n\n\n\t$panelName = `sceneUIReplacement -getNextScriptedPanel \"componentEditorPanel\" (localizedPanelLabel(\"Component Editor\")) `;\n\tif (\"\" == $panelName) {\n\t\tif ($useSceneConfig) {\n\t\t\t$panelName = `scriptedPanel -unParent  -type \"componentEditorPanel\" -l (localizedPanelLabel(\"Component Editor\")) -mbv $menusOkayInPanels `;\n\t\t}\n\t} else {\n\t\t$label = `panel -q -label $panelName`;\n\t\tscriptedPanel -edit -l (localizedPanelLabel(\"Component Editor\")) -mbv $menusOkayInPanels  $panelName;\n"
		+ "\t\tif (!$useSceneConfig) {\n\t\t\tpanel -e -l $label $panelName;\n\t\t}\n\t}\n\n\n\t$panelName = `sceneUIReplacement -getNextScriptedPanel \"dynPaintScriptedPanelType\" (localizedPanelLabel(\"Paint Effects\")) `;\n\tif (\"\" == $panelName) {\n\t\tif ($useSceneConfig) {\n\t\t\t$panelName = `scriptedPanel -unParent  -type \"dynPaintScriptedPanelType\" -l (localizedPanelLabel(\"Paint Effects\")) -mbv $menusOkayInPanels `;\n\t\t}\n\t} else {\n\t\t$label = `panel -q -label $panelName`;\n\t\tscriptedPanel -edit -l (localizedPanelLabel(\"Paint Effects\")) -mbv $menusOkayInPanels  $panelName;\n\t\tif (!$useSceneConfig) {\n\t\t\tpanel -e -l $label $panelName;\n\t\t}\n\t}\n\n\n\t$panelName = `sceneUIReplacement -getNextScriptedPanel \"scriptEditorPanel\" (localizedPanelLabel(\"Script Editor\")) `;\n\tif (\"\" == $panelName) {\n\t\tif ($useSceneConfig) {\n\t\t\t$panelName = `scriptedPanel -unParent  -type \"scriptEditorPanel\" -l (localizedPanelLabel(\"Script Editor\")) -mbv $menusOkayInPanels `;\n\t\t}\n\t} else {\n\t\t$label = `panel -q -label $panelName`;\n\t\tscriptedPanel -edit -l (localizedPanelLabel(\"Script Editor\")) -mbv $menusOkayInPanels  $panelName;\n"
		+ "\t\tif (!$useSceneConfig) {\n\t\t\tpanel -e -l $label $panelName;\n\t\t}\n\t}\n\n\n\tif ($useSceneConfig) {\n        string $configName = `getPanel -cwl (localizedPanelLabel(\"Current Layout\"))`;\n        if (\"\" != $configName) {\n\t\t\tpanelConfiguration -edit -label (localizedPanelLabel(\"Current Layout\")) \n\t\t\t\t-defaultImage \"\"\n\t\t\t\t-image \"\"\n\t\t\t\t-sc false\n\t\t\t\t-configString \"global string $gMainPane; paneLayout -e -cn \\\"vertical2\\\" -ps 1 20 100 -ps 2 80 100 $gMainPane;\"\n\t\t\t\t-removeAllPanels\n\t\t\t\t-ap false\n\t\t\t\t\t(localizedPanelLabel(\"Outliner\")) \n\t\t\t\t\t\"outlinerPanel\"\n\t\t\t\t\t\"$panelName = `outlinerPanel -unParent -l (localizedPanelLabel(\\\"Outliner\\\")) -mbv $menusOkayInPanels `;\\n$editorName = $panelName;\\noutlinerEditor -e \\n    -docTag \\\"isolOutln_fromSeln\\\" \\n    -showShapes 0\\n    -showAttributes 0\\n    -showConnected 0\\n    -showAnimCurvesOnly 0\\n    -showMuteInfo 1\\n    -organizeByLayer 1\\n    -showAnimLayerWeight 1\\n    -autoExpandLayers 1\\n    -autoExpand 0\\n    -showDagOnly 0\\n    -showAssets 1\\n    -showContainedOnly 1\\n    -showPublishedAsConnected 0\\n    -showContainerContents 1\\n    -ignoreDagHierarchy 0\\n    -expandConnections 0\\n    -showUpstreamCurves 1\\n    -showUnitlessCurves 1\\n    -showCompounds 1\\n    -showLeafs 1\\n    -showNumericAttrsOnly 0\\n    -highlightActive 1\\n    -autoSelectNewObjects 0\\n    -doNotSelectNewObjects 0\\n    -dropIsParent 1\\n    -transmitFilters 0\\n    -setFilter \\\"defaultSetFilter\\\" \\n    -showSetMembers 1\\n    -allowMultiSelection 1\\n    -alwaysToggleSelect 0\\n    -directSelect 0\\n    -displayMode \\\"DAG\\\" \\n    -expandObjects 0\\n    -setsIgnoreFilters 1\\n    -containersIgnoreFilters 0\\n    -editAttrName 0\\n    -showAttrValues 0\\n    -highlightSecondary 0\\n    -showUVAttrsOnly 0\\n    -showTextureNodesOnly 0\\n    -attrAlphaOrder \\\"default\\\" \\n    -animLayerFilterOptions \\\"allAffecting\\\" \\n    -sortOrder \\\"none\\\" \\n    -longNames 0\\n    -niceNames 1\\n    -showNamespace 1\\n    -showPinIcons 0\\n    $editorName\"\n"
		+ "\t\t\t\t\t\"outlinerPanel -edit -l (localizedPanelLabel(\\\"Outliner\\\")) -mbv $menusOkayInPanels  $panelName;\\n$editorName = $panelName;\\noutlinerEditor -e \\n    -docTag \\\"isolOutln_fromSeln\\\" \\n    -showShapes 0\\n    -showAttributes 0\\n    -showConnected 0\\n    -showAnimCurvesOnly 0\\n    -showMuteInfo 1\\n    -organizeByLayer 1\\n    -showAnimLayerWeight 1\\n    -autoExpandLayers 1\\n    -autoExpand 0\\n    -showDagOnly 0\\n    -showAssets 1\\n    -showContainedOnly 1\\n    -showPublishedAsConnected 0\\n    -showContainerContents 1\\n    -ignoreDagHierarchy 0\\n    -expandConnections 0\\n    -showUpstreamCurves 1\\n    -showUnitlessCurves 1\\n    -showCompounds 1\\n    -showLeafs 1\\n    -showNumericAttrsOnly 0\\n    -highlightActive 1\\n    -autoSelectNewObjects 0\\n    -doNotSelectNewObjects 0\\n    -dropIsParent 1\\n    -transmitFilters 0\\n    -setFilter \\\"defaultSetFilter\\\" \\n    -showSetMembers 1\\n    -allowMultiSelection 1\\n    -alwaysToggleSelect 0\\n    -directSelect 0\\n    -displayMode \\\"DAG\\\" \\n    -expandObjects 0\\n    -setsIgnoreFilters 1\\n    -containersIgnoreFilters 0\\n    -editAttrName 0\\n    -showAttrValues 0\\n    -highlightSecondary 0\\n    -showUVAttrsOnly 0\\n    -showTextureNodesOnly 0\\n    -attrAlphaOrder \\\"default\\\" \\n    -animLayerFilterOptions \\\"allAffecting\\\" \\n    -sortOrder \\\"none\\\" \\n    -longNames 0\\n    -niceNames 1\\n    -showNamespace 1\\n    -showPinIcons 0\\n    $editorName\"\n"
		+ "\t\t\t\t-ap false\n\t\t\t\t\t(localizedPanelLabel(\"Persp View\")) \n\t\t\t\t\t\"modelPanel\"\n"
		+ "\t\t\t\t\t\"$panelName = `modelPanel -unParent -l (localizedPanelLabel(\\\"Persp View\\\")) -mbv $menusOkayInPanels `;\\n$editorName = $panelName;\\nmodelEditor -e \\n    -cam `findStartUpCamera persp` \\n    -useInteractiveMode 0\\n    -displayLights \\\"default\\\" \\n    -displayAppearance \\\"wireframe\\\" \\n    -activeOnly 0\\n    -ignorePanZoom 0\\n    -wireframeOnShaded 0\\n    -headsUpDisplay 1\\n    -selectionHiliteDisplay 1\\n    -useDefaultMaterial 0\\n    -bufferMode \\\"double\\\" \\n    -twoSidedLighting 1\\n    -backfaceCulling 0\\n    -xray 0\\n    -jointXray 0\\n    -activeComponentsXray 0\\n    -displayTextures 0\\n    -smoothWireframe 0\\n    -lineWidth 1\\n    -textureAnisotropic 0\\n    -textureHilight 1\\n    -textureSampling 2\\n    -textureDisplay \\\"modulate\\\" \\n    -textureMaxSize 16384\\n    -fogging 0\\n    -fogSource \\\"fragment\\\" \\n    -fogMode \\\"linear\\\" \\n    -fogStart 0\\n    -fogEnd 100\\n    -fogDensity 0.1\\n    -fogColor 0.5 0.5 0.5 1 \\n    -maxConstantTransparency 1\\n    -rendererName \\\"base_OpenGL_Renderer\\\" \\n    -colorResolution 256 256 \\n    -bumpResolution 512 512 \\n    -textureCompression 0\\n    -transparencyAlgorithm \\\"frontAndBackCull\\\" \\n    -transpInShadows 0\\n    -cullingOverride \\\"none\\\" \\n    -lowQualityLighting 0\\n    -maximumNumHardwareLights 1\\n    -occlusionCulling 0\\n    -shadingModel 0\\n    -useBaseRenderer 0\\n    -useReducedRenderer 0\\n    -smallObjectCulling 0\\n    -smallObjectThreshold -1 \\n    -interactiveDisableShadows 0\\n    -interactiveBackFaceCull 0\\n    -sortTransparent 1\\n    -nurbsCurves 1\\n    -nurbsSurfaces 1\\n    -polymeshes 1\\n    -subdivSurfaces 1\\n    -planes 1\\n    -lights 1\\n    -cameras 1\\n    -controlVertices 1\\n    -hulls 1\\n    -grid 1\\n    -joints 1\\n    -ikHandles 1\\n    -deformers 1\\n    -dynamics 1\\n    -fluids 1\\n    -hairSystems 1\\n    -follicles 1\\n    -nCloths 1\\n    -nParticles 1\\n    -nRigids 1\\n    -dynamicConstraints 1\\n    -locators 1\\n    -manipulators 1\\n    -dimensions 1\\n    -handles 1\\n    -pivots 1\\n    -textures 1\\n    -strokes 1\\n    -shadows 0\\n    $editorName;\\nmodelEditor -e -viewSelected 0 $editorName\"\n"
		+ "\t\t\t\t\t\"modelPanel -edit -l (localizedPanelLabel(\\\"Persp View\\\")) -mbv $menusOkayInPanels  $panelName;\\n$editorName = $panelName;\\nmodelEditor -e \\n    -cam `findStartUpCamera persp` \\n    -useInteractiveMode 0\\n    -displayLights \\\"default\\\" \\n    -displayAppearance \\\"wireframe\\\" \\n    -activeOnly 0\\n    -ignorePanZoom 0\\n    -wireframeOnShaded 0\\n    -headsUpDisplay 1\\n    -selectionHiliteDisplay 1\\n    -useDefaultMaterial 0\\n    -bufferMode \\\"double\\\" \\n    -twoSidedLighting 1\\n    -backfaceCulling 0\\n    -xray 0\\n    -jointXray 0\\n    -activeComponentsXray 0\\n    -displayTextures 0\\n    -smoothWireframe 0\\n    -lineWidth 1\\n    -textureAnisotropic 0\\n    -textureHilight 1\\n    -textureSampling 2\\n    -textureDisplay \\\"modulate\\\" \\n    -textureMaxSize 16384\\n    -fogging 0\\n    -fogSource \\\"fragment\\\" \\n    -fogMode \\\"linear\\\" \\n    -fogStart 0\\n    -fogEnd 100\\n    -fogDensity 0.1\\n    -fogColor 0.5 0.5 0.5 1 \\n    -maxConstantTransparency 1\\n    -rendererName \\\"base_OpenGL_Renderer\\\" \\n    -colorResolution 256 256 \\n    -bumpResolution 512 512 \\n    -textureCompression 0\\n    -transparencyAlgorithm \\\"frontAndBackCull\\\" \\n    -transpInShadows 0\\n    -cullingOverride \\\"none\\\" \\n    -lowQualityLighting 0\\n    -maximumNumHardwareLights 1\\n    -occlusionCulling 0\\n    -shadingModel 0\\n    -useBaseRenderer 0\\n    -useReducedRenderer 0\\n    -smallObjectCulling 0\\n    -smallObjectThreshold -1 \\n    -interactiveDisableShadows 0\\n    -interactiveBackFaceCull 0\\n    -sortTransparent 1\\n    -nurbsCurves 1\\n    -nurbsSurfaces 1\\n    -polymeshes 1\\n    -subdivSurfaces 1\\n    -planes 1\\n    -lights 1\\n    -cameras 1\\n    -controlVertices 1\\n    -hulls 1\\n    -grid 1\\n    -joints 1\\n    -ikHandles 1\\n    -deformers 1\\n    -dynamics 1\\n    -fluids 1\\n    -hairSystems 1\\n    -follicles 1\\n    -nCloths 1\\n    -nParticles 1\\n    -nRigids 1\\n    -dynamicConstraints 1\\n    -locators 1\\n    -manipulators 1\\n    -dimensions 1\\n    -handles 1\\n    -pivots 1\\n    -textures 1\\n    -strokes 1\\n    -shadows 0\\n    $editorName;\\nmodelEditor -e -viewSelected 0 $editorName\"\n"
		+ "\t\t\t\t$configName;\n\n            setNamedPanelLayout (localizedPanelLabel(\"Current Layout\"));\n        }\n\n        panelHistory -e -clear mainPanelHistory;\n        setFocus `paneLayout -q -p1 $gMainPane`;\n        sceneUIReplacement -deleteRemaining;\n        sceneUIReplacement -clear;\n\t}\n\n\ngrid -spacing 5 -size 12 -divisions 5 -displayAxes yes -displayGridLines yes -displayDivisionLines yes -displayPerspectiveLabels no -displayOrthographicLabels no -displayAxesBold yes -perspectiveLabelPosition axis -orthographicLabelPosition edge;\nviewManip -drawCompass 0 -compassAngle 0 -frontParameters \"\" -homeParameters \"\" -selectionLockParameters \"\";\n}\n");
	setAttr ".st" 3;
createNode script -n "charBase:sceneConfigurationScriptNode";
	setAttr ".b" -type "string" "playbackOptions -min 1 -max 24 -ast 1 -aet 24 ";
	setAttr ".st" 6;
createNode animCurveTL -n "CHAR:Hips_translateX";
	setAttr ".tan" 3;
	setAttr ".wgt" no;
	setAttr -s 2 ".ktv[0:1]"  1 0 24 0;
createNode animCurveTL -n "CHAR:Hips_translateY";
	setAttr ".tan" 3;
	setAttr ".wgt" no;
	setAttr -s 2 ".ktv[0:1]"  1 0.13869289285500294 24 0.13869289285500294;
createNode animCurveTL -n "CHAR:Hips_translateZ";
	setAttr ".tan" 3;
	setAttr ".wgt" no;
	setAttr -s 2 ".ktv[0:1]"  1 0 24 0;
createNode animCurveTA -n "CHAR:Hips_rotateX";
	setAttr ".tan" 3;
	setAttr ".wgt" no;
	setAttr -s 2 ".ktv[0:1]"  1 0 24 0;
createNode animCurveTA -n "CHAR:Hips_rotateY";
	setAttr ".tan" 3;
	setAttr ".wgt" no;
	setAttr -s 2 ".ktv[0:1]"  1 0 24 0;
createNode animCurveTA -n "CHAR:Hips_rotateZ";
	setAttr ".tan" 3;
	setAttr ".wgt" no;
	setAttr -s 2 ".ktv[0:1]"  1 0 24 0;
createNode animCurveTL -n "CHAR:L_UpLeg_translateX";
	setAttr ".tan" 3;
	setAttr ".wgt" no;
	setAttr -s 2 ".ktv[0:1]"  1 0.070009579502510674 24 0.070009579502510674;
createNode animCurveTL -n "CHAR:L_UpLeg_translateY";
	setAttr ".tan" 3;
	setAttr ".wgt" no;
	setAttr -s 2 ".ktv[0:1]"  1 -0.0060846385363047539 24 -0.0060846385363047539;
createNode animCurveTL -n "CHAR:L_UpLeg_translateZ";
	setAttr ".tan" 3;
	setAttr ".wgt" no;
	setAttr -s 2 ".ktv[0:1]"  1 0.022445472767603711 24 0.022445472767603711;
createNode animCurveTA -n "CHAR:L_UpLeg_rotateX";
	setAttr ".tan" 3;
	setAttr ".wgt" no;
	setAttr -s 2 ".ktv[0:1]"  1 0 24 0;
createNode animCurveTA -n "CHAR:L_UpLeg_rotateY";
	setAttr ".tan" 3;
	setAttr ".wgt" no;
	setAttr -s 2 ".ktv[0:1]"  1 11.63677182745454 24 11.63677182745454;
createNode animCurveTA -n "CHAR:L_UpLeg_rotateZ";
	setAttr ".tan" 3;
	setAttr ".wgt" no;
	setAttr -s 2 ".ktv[0:1]"  1 0 24 0;
createNode animCurveTL -n "CHAR:L_Foot_translateX";
	setAttr ".tan" 3;
	setAttr ".wgt" no;
	setAttr -s 2 ".ktv[0:1]"  1 0 24 0;
createNode animCurveTL -n "CHAR:L_Foot_translateY";
	setAttr ".tan" 3;
	setAttr ".wgt" no;
	setAttr -s 2 ".ktv[0:1]"  1 -0.084689841956147066 24 -0.084689841956147066;
createNode animCurveTL -n "CHAR:L_Foot_translateZ";
	setAttr ".tan" 3;
	setAttr ".wgt" no;
	setAttr -s 2 ".ktv[0:1]"  1 -0.0063425146207074061 24 -0.0063425146207074061;
createNode animCurveTA -n "CHAR:L_Foot_rotateX";
	setAttr ".tan" 3;
	setAttr ".wgt" no;
	setAttr -s 2 ".ktv[0:1]"  1 0 24 0;
createNode animCurveTA -n "CHAR:L_Foot_rotateY";
	setAttr ".tan" 3;
	setAttr ".wgt" no;
	setAttr -s 2 ".ktv[0:1]"  1 4.415394983174874 24 4.415394983174874;
createNode animCurveTA -n "CHAR:L_Foot_rotateZ";
	setAttr ".tan" 3;
	setAttr ".wgt" no;
	setAttr -s 2 ".ktv[0:1]"  1 0 24 0;
createNode animCurveTL -n "CHAR:R_UpLeg_translateX";
	setAttr ".tan" 3;
	setAttr ".wgt" no;
	setAttr -s 2 ".ktv[0:1]"  1 -0.070009600000000005 24 -0.070009600000000005;
createNode animCurveTL -n "CHAR:R_UpLeg_translateY";
	setAttr ".tan" 3;
	setAttr ".wgt" no;
	setAttr -s 2 ".ktv[0:1]"  1 -0.006084892855002938 24 -0.006084892855002938;
createNode animCurveTL -n "CHAR:R_UpLeg_translateZ";
	setAttr ".tan" 3;
	setAttr ".wgt" no;
	setAttr -s 2 ".ktv[0:1]"  1 -0.016518061368385004 24 -0.016518061368385004;
createNode animCurveTA -n "CHAR:R_UpLeg_rotateX";
	setAttr ".tan" 3;
	setAttr ".wgt" no;
	setAttr -s 2 ".ktv[0:1]"  1 0 24 0;
createNode animCurveTA -n "CHAR:R_UpLeg_rotateY";
	setAttr ".tan" 3;
	setAttr ".wgt" no;
	setAttr -s 2 ".ktv[0:1]"  1 30.504985340114384 24 30.504985340114384;
createNode animCurveTA -n "CHAR:R_UpLeg_rotateZ";
	setAttr ".tan" 3;
	setAttr ".wgt" no;
	setAttr -s 2 ".ktv[0:1]"  1 0 24 0;
createNode animCurveTL -n "CHAR:R_Foot_translateX";
	setAttr ".tan" 3;
	setAttr ".wgt" no;
	setAttr -s 2 ".ktv[0:1]"  1 0 24 0;
createNode animCurveTL -n "CHAR:R_Foot_translateY";
	setAttr ".tan" 3;
	setAttr ".wgt" no;
	setAttr -s 2 ".ktv[0:1]"  1 0.084689600000000004 24 0.084689600000000004;
createNode animCurveTL -n "CHAR:R_Foot_translateZ";
	setAttr ".tan" 3;
	setAttr ".wgt" no;
	setAttr -s 2 ".ktv[0:1]"  1 0.021067464240913117 24 0.021067464240913117;
createNode animCurveTA -n "CHAR:R_Foot_rotateX";
	setAttr ".tan" 3;
	setAttr ".wgt" no;
	setAttr -s 2 ".ktv[0:1]"  1 0 24 0;
createNode animCurveTA -n "CHAR:R_Foot_rotateY";
	setAttr ".tan" 3;
	setAttr ".wgt" no;
	setAttr -s 2 ".ktv[0:1]"  1 0 24 0;
createNode animCurveTA -n "CHAR:R_Foot_rotateZ";
	setAttr ".tan" 3;
	setAttr ".wgt" no;
	setAttr -s 2 ".ktv[0:1]"  1 0 24 0;
createNode animCurveTL -n "CHAR:Chest_translateX";
	setAttr ".tan" 3;
	setAttr ".wgt" no;
	setAttr -s 2 ".ktv[0:1]"  1 0 24 0;
createNode animCurveTL -n "CHAR:Chest_translateY";
	setAttr ".tan" 3;
	setAttr ".wgt" no;
	setAttr -s 3 ".ktv[0:2]"  1 0.10884257154069879 13 0.096681869806524295 
		24 0.10884257154069879;
createNode animCurveTL -n "CHAR:Chest_translateZ";
	setAttr ".tan" 3;
	setAttr ".wgt" no;
	setAttr -s 3 ".ktv[0:2]"  1 0.013080363527512615 13 0.019554256252503802 
		24 0.013080363527512615;
createNode animCurveTA -n "CHAR:Chest_rotateX";
	setAttr ".tan" 3;
	setAttr ".wgt" no;
	setAttr -s 2 ".ktv[0:1]"  1 9.4025244870176845 24 9.4025244870176845;
createNode animCurveTA -n "CHAR:Chest_rotateY";
	setAttr ".tan" 3;
	setAttr ".wgt" no;
	setAttr -s 2 ".ktv[0:1]"  1 0 24 0;
createNode animCurveTA -n "CHAR:Chest_rotateZ";
	setAttr ".tan" 3;
	setAttr ".wgt" no;
	setAttr -s 2 ".ktv[0:1]"  1 0 24 0;
createNode animCurveTL -n "CHAR:Head_translateX";
	setAttr ".tan" 3;
	setAttr ".wgt" no;
	setAttr -s 2 ".ktv[0:1]"  1 0 24 0;
createNode animCurveTL -n "CHAR:Head_translateY";
	setAttr ".tan" 3;
	setAttr ".wgt" no;
	setAttr -s 2 ".ktv[0:1]"  1 0.10824190228002734 24 0.10824190228002734;
createNode animCurveTL -n "CHAR:Head_translateZ";
	setAttr ".tan" 3;
	setAttr ".wgt" no;
	setAttr -s 2 ".ktv[0:1]"  1 0.013209214932597892 24 0.013209214932597892;
createNode animCurveTA -n "CHAR:Head_rotateX";
	setAttr ".tan" 3;
	setAttr ".wgt" no;
	setAttr -s 3 ".ktv[0:2]"  1 -7.945615135808084 13 -4.8666349953691777 
		24 -7.945615135808084;
createNode animCurveTA -n "CHAR:Head_rotateY";
	setAttr ".tan" 3;
	setAttr ".wgt" no;
	setAttr -s 2 ".ktv[0:1]"  1 0 24 0;
createNode animCurveTA -n "CHAR:Head_rotateZ";
	setAttr ".tan" 3;
	setAttr ".wgt" no;
	setAttr -s 2 ".ktv[0:1]"  1 0 24 0;
createNode animCurveTA -n "CHAR:L_Arm_rotateX";
	setAttr ".tan" 3;
	setAttr ".wgt" no;
	setAttr -s 3 ".ktv[0:2]"  1 1.1550338373909896 13 4.923748437793158 
		24 1.1550338373909896;
createNode animCurveTA -n "CHAR:L_Arm_rotateY";
	setAttr ".tan" 3;
	setAttr ".wgt" no;
	setAttr -s 3 ".ktv[0:2]"  1 -1.2347632167482516 13 -9.6889287664795187 
		24 -1.2347632167482516;
createNode animCurveTA -n "CHAR:L_Arm_rotateZ";
	setAttr ".tan" 3;
	setAttr ".wgt" no;
	setAttr -s 3 ".ktv[0:2]"  1 -56.593946476173521 13 -49.413864608752419 
		24 -56.593946476173521;
createNode animCurveTL -n "CHAR:L_Arm_translateX";
	setAttr ".tan" 3;
	setAttr ".wgt" no;
	setAttr -s 2 ".ktv[0:1]"  1 0.10930592674501809 24 0.10930592674501809;
createNode animCurveTL -n "CHAR:L_Arm_translateY";
	setAttr ".tan" 3;
	setAttr ".wgt" no;
	setAttr -s 2 ".ktv[0:1]"  1 0.060358703314163709 24 0.060358703314163709;
createNode animCurveTL -n "CHAR:L_Arm_translateZ";
	setAttr ".tan" 3;
	setAttr ".wgt" no;
	setAttr -s 2 ".ktv[0:1]"  1 0 24 0;
createNode animCurveTL -n "CHAR:L_Hand_translateX";
	setAttr ".tan" 3;
	setAttr ".wgt" no;
	setAttr -s 2 ".ktv[0:1]"  1 0.11544761569239656 24 0.11544761569239656;
createNode animCurveTL -n "CHAR:L_Hand_translateY";
	setAttr ".tan" 3;
	setAttr ".wgt" no;
	setAttr -s 2 ".ktv[0:1]"  1 0 24 0;
createNode animCurveTL -n "CHAR:L_Hand_translateZ";
	setAttr ".tan" 3;
	setAttr ".wgt" no;
	setAttr -s 2 ".ktv[0:1]"  1 0 24 0;
createNode animCurveTA -n "CHAR:L_Hand_rotateX";
	setAttr ".tan" 3;
	setAttr ".wgt" no;
	setAttr -s 2 ".ktv[0:1]"  1 0 24 0;
createNode animCurveTA -n "CHAR:L_Hand_rotateY";
	setAttr ".tan" 3;
	setAttr ".wgt" no;
	setAttr -s 2 ".ktv[0:1]"  1 0 24 0;
createNode animCurveTA -n "CHAR:L_Hand_rotateZ";
	setAttr ".tan" 3;
	setAttr ".wgt" no;
	setAttr -s 2 ".ktv[0:1]"  1 0 24 0;
createNode animCurveTA -n "CHAR:R_Arm_rotateX";
	setAttr ".tan" 3;
	setAttr ".wgt" no;
	setAttr -s 3 ".ktv[0:2]"  1 9.5315504308106451 13 9.8800842505295829 
		24 9.5315504308106451;
createNode animCurveTA -n "CHAR:R_Arm_rotateY";
	setAttr ".tan" 3;
	setAttr ".wgt" no;
	setAttr -s 3 ".ktv[0:2]"  1 -1.7526969368421339 13 7.27969297680559 
		24 -1.7526969368421339;
createNode animCurveTA -n "CHAR:R_Arm_rotateZ";
	setAttr ".tan" 3;
	setAttr ".wgt" no;
	setAttr -s 3 ".ktv[0:2]"  1 -52.69700276363114 13 -44.212738705247084 
		24 -52.69700276363114;
createNode animCurveTL -n "CHAR:R_Arm_translateX";
	setAttr ".tan" 3;
	setAttr ".wgt" no;
	setAttr -s 2 ".ktv[0:1]"  1 -0.109306 24 -0.109306;
createNode animCurveTL -n "CHAR:R_Arm_translateY";
	setAttr ".tan" 3;
	setAttr ".wgt" no;
	setAttr -s 2 ".ktv[0:1]"  1 0.060358535604298269 24 0.060358535604298269;
createNode animCurveTL -n "CHAR:R_Arm_translateZ";
	setAttr ".tan" 3;
	setAttr ".wgt" no;
	setAttr -s 2 ".ktv[0:1]"  1 0 24 0;
createNode animCurveTL -n "CHAR:R_Hand_translateX";
	setAttr ".tan" 3;
	setAttr ".wgt" no;
	setAttr -s 2 ".ktv[0:1]"  1 -0.11544764477881764 24 -0.11544764477881764;
createNode animCurveTL -n "CHAR:R_Hand_translateY";
	setAttr ".tan" 3;
	setAttr ".wgt" no;
	setAttr -s 2 ".ktv[0:1]"  1 1.5472325828880251e-007 24 1.5472325828880251e-007;
createNode animCurveTL -n "CHAR:R_Hand_translateZ";
	setAttr ".tan" 3;
	setAttr ".wgt" no;
	setAttr -s 2 ".ktv[0:1]"  1 0 24 0;
createNode animCurveTA -n "CHAR:R_Hand_rotateX";
	setAttr ".tan" 3;
	setAttr ".wgt" no;
	setAttr -s 2 ".ktv[0:1]"  1 0 24 0;
createNode animCurveTA -n "CHAR:R_Hand_rotateY";
	setAttr ".tan" 3;
	setAttr ".wgt" no;
	setAttr -s 2 ".ktv[0:1]"  1 0 24 0;
createNode animCurveTA -n "CHAR:R_Hand_rotateZ";
	setAttr ".tan" 3;
	setAttr ".wgt" no;
	setAttr -s 2 ".ktv[0:1]"  1 0 24 0;
select -ne :time1;
	setAttr ".o" 24;
	setAttr ".unw" 24;
select -ne :renderPartition;
	setAttr -s 2 ".st";
select -ne :initialShadingGroup;
	setAttr ".ro" yes;
select -ne :initialParticleSE;
	setAttr ".ro" yes;
select -ne :defaultShaderList1;
	setAttr -s 2 ".s";
select -ne :postProcessList1;
	setAttr -s 2 ".p";
select -ne :renderGlobalsList1;
select -ne :hardwareRenderGlobals;
	setAttr ".ctrs" 256;
	setAttr ".btrs" 512;
select -ne :defaultHardwareRenderGlobals;
	setAttr ".fn" -type "string" "im";
	setAttr ".res" -type "string" "ntsc_4d 646 485 1.333";
connectAttr "CHAR:Hips_translateX.o" "CHARRN.phl[1]";
connectAttr "CHAR:Hips_translateY.o" "CHARRN.phl[2]";
connectAttr "CHAR:Hips_translateZ.o" "CHARRN.phl[3]";
connectAttr "CHAR:Hips_rotateX.o" "CHARRN.phl[4]";
connectAttr "CHAR:Hips_rotateY.o" "CHARRN.phl[5]";
connectAttr "CHAR:Hips_rotateZ.o" "CHARRN.phl[6]";
connectAttr "CHAR:L_UpLeg_translateX.o" "CHARRN.phl[7]";
connectAttr "CHAR:L_UpLeg_translateY.o" "CHARRN.phl[8]";
connectAttr "CHAR:L_UpLeg_translateZ.o" "CHARRN.phl[9]";
connectAttr "CHAR:L_UpLeg_rotateX.o" "CHARRN.phl[10]";
connectAttr "CHAR:L_UpLeg_rotateY.o" "CHARRN.phl[11]";
connectAttr "CHAR:L_UpLeg_rotateZ.o" "CHARRN.phl[12]";
connectAttr "CHAR:L_Foot_translateX.o" "CHARRN.phl[13]";
connectAttr "CHAR:L_Foot_translateY.o" "CHARRN.phl[14]";
connectAttr "CHAR:L_Foot_translateZ.o" "CHARRN.phl[15]";
connectAttr "CHAR:L_Foot_rotateX.o" "CHARRN.phl[16]";
connectAttr "CHAR:L_Foot_rotateY.o" "CHARRN.phl[17]";
connectAttr "CHAR:L_Foot_rotateZ.o" "CHARRN.phl[18]";
connectAttr "CHAR:R_UpLeg_translateX.o" "CHARRN.phl[19]";
connectAttr "CHAR:R_UpLeg_translateY.o" "CHARRN.phl[20]";
connectAttr "CHAR:R_UpLeg_translateZ.o" "CHARRN.phl[21]";
connectAttr "CHAR:R_UpLeg_rotateX.o" "CHARRN.phl[22]";
connectAttr "CHAR:R_UpLeg_rotateY.o" "CHARRN.phl[23]";
connectAttr "CHAR:R_UpLeg_rotateZ.o" "CHARRN.phl[24]";
connectAttr "CHAR:R_Foot_translateX.o" "CHARRN.phl[25]";
connectAttr "CHAR:R_Foot_translateY.o" "CHARRN.phl[26]";
connectAttr "CHAR:R_Foot_translateZ.o" "CHARRN.phl[27]";
connectAttr "CHAR:R_Foot_rotateX.o" "CHARRN.phl[28]";
connectAttr "CHAR:R_Foot_rotateY.o" "CHARRN.phl[29]";
connectAttr "CHAR:R_Foot_rotateZ.o" "CHARRN.phl[30]";
connectAttr "CHAR:Chest_translateX.o" "CHARRN.phl[31]";
connectAttr "CHAR:Chest_translateY.o" "CHARRN.phl[32]";
connectAttr "CHAR:Chest_translateZ.o" "CHARRN.phl[33]";
connectAttr "CHAR:Chest_rotateX.o" "CHARRN.phl[34]";
connectAttr "CHAR:Chest_rotateY.o" "CHARRN.phl[35]";
connectAttr "CHAR:Chest_rotateZ.o" "CHARRN.phl[36]";
connectAttr "CHAR:Head_translateX.o" "CHARRN.phl[37]";
connectAttr "CHAR:Head_translateY.o" "CHARRN.phl[38]";
connectAttr "CHAR:Head_translateZ.o" "CHARRN.phl[39]";
connectAttr "CHAR:Head_rotateX.o" "CHARRN.phl[40]";
connectAttr "CHAR:Head_rotateY.o" "CHARRN.phl[41]";
connectAttr "CHAR:Head_rotateZ.o" "CHARRN.phl[42]";
connectAttr "CHAR:L_Arm_rotateX.o" "CHARRN.phl[43]";
connectAttr "CHAR:L_Arm_rotateY.o" "CHARRN.phl[44]";
connectAttr "CHAR:L_Arm_rotateZ.o" "CHARRN.phl[45]";
connectAttr "CHAR:L_Arm_translateX.o" "CHARRN.phl[46]";
connectAttr "CHAR:L_Arm_translateY.o" "CHARRN.phl[47]";
connectAttr "CHAR:L_Arm_translateZ.o" "CHARRN.phl[48]";
connectAttr "CHAR:L_Hand_translateX.o" "CHARRN.phl[49]";
connectAttr "CHAR:L_Hand_translateY.o" "CHARRN.phl[50]";
connectAttr "CHAR:L_Hand_translateZ.o" "CHARRN.phl[51]";
connectAttr "CHAR:L_Hand_rotateX.o" "CHARRN.phl[52]";
connectAttr "CHAR:L_Hand_rotateY.o" "CHARRN.phl[53]";
connectAttr "CHAR:L_Hand_rotateZ.o" "CHARRN.phl[54]";
connectAttr "CHAR:R_Arm_rotateX.o" "CHARRN.phl[55]";
connectAttr "CHAR:R_Arm_rotateY.o" "CHARRN.phl[56]";
connectAttr "CHAR:R_Arm_rotateZ.o" "CHARRN.phl[57]";
connectAttr "CHAR:R_Arm_translateX.o" "CHARRN.phl[58]";
connectAttr "CHAR:R_Arm_translateY.o" "CHARRN.phl[59]";
connectAttr "CHAR:R_Arm_translateZ.o" "CHARRN.phl[60]";
connectAttr "CHAR:R_Hand_translateX.o" "CHARRN.phl[61]";
connectAttr "CHAR:R_Hand_translateY.o" "CHARRN.phl[62]";
connectAttr "CHAR:R_Hand_translateZ.o" "CHARRN.phl[63]";
connectAttr "CHAR:R_Hand_rotateX.o" "CHARRN.phl[64]";
connectAttr "CHAR:R_Hand_rotateY.o" "CHARRN.phl[65]";
connectAttr "CHAR:R_Hand_rotateZ.o" "CHARRN.phl[66]";
relationship "link" ":lightLinker1" ":initialShadingGroup.message" ":defaultLightSet.message";
relationship "link" ":lightLinker1" ":initialParticleSE.message" ":defaultLightSet.message";
relationship "shadowLink" ":lightLinker1" ":initialShadingGroup.message" ":defaultLightSet.message";
relationship "shadowLink" ":lightLinker1" ":initialParticleSE.message" ":defaultLightSet.message";
connectAttr "layerManager.dli[0]" "defaultLayer.id";
connectAttr "renderLayerManager.rlmi[0]" "defaultRenderLayer.rlid";
// End of charBase_idleEncounter.ma
